%YAML 1.1
%TAG !u! tag:unity3d.com,2011:
--- !u!21 &2100000
Material:
  serializedVersion: 3
  m_ObjectHideFlags: 0
  m_PrefabParentObject: {fileID: 0}
  m_PrefabInternal: {fileID: 0}
  m_Name: inv_clone_01
  m_Shader: {fileID: 4800000, guid: 69285b4845be0924e9e7225d4bf11450, type: 3}
  m_ShaderKeywords: []
  m_CustomRenderQueue: -1
  m_SavedProperties:
    serializedVersion: 2
    m_TexEnvs:
      data:
        first:
          name: _MainTex
        second:
          m_Texture: {fileID: 2800000, guid: b8c0365e7e960a94e951da4cb85054c8, type: 3}
          m_Scale: {x: 1, y: 1}
          m_Offset: {x: 0, y: 0}
    m_Floats:
      data:
        first:
          name: _Transition
        second: 0
      data:
        first:
          name: _Explosion
        second: 0
    m_Colors:
      data:
        first:
          name: _Color
        second: {r: 1, g: .301960796, b: .301960796, a: 1}
      data:
        first:
          name: _ColorActive
        second: {r: 1, g: 0, b: 0, a: 1}
