%YAML 1.1
%TAG !u! tag:unity3d.com,2011:
--- !u!74 &7400000
AnimationClip:
  m_ObjectHideFlags: 0
  m_PrefabParentObject: {fileID: 0}
  m_PrefabInternal: {fileID: 0}
  m_Name: pulse_animations_phase1_descend_01
  serializedVersion: 4
  m_AnimationType: 1
  m_Compressed: 0
  m_UseHighQualityCurve: 1
  m_RotationCurves: []
  m_CompressedRotationCurves: []
  m_PositionCurves: []
  m_ScaleCurves: []
  m_FloatCurves:
  - curve:
      serializedVersion: 2
      m_Curve:
      - time: 0
        value: 0
        inSlope: 0
        outSlope: 0
        tangentMode: 0
      - time: 1.2833333
        value: 0
        inSlope: 0
        outSlope: 0
        tangentMode: 0
      - time: 1.31666672
        value: .200000003
        inSlope: 0
        outSlope: 0
        tangentMode: 0
      - time: 1.39999998
        value: .163348407
        inSlope: 0
        outSlope: 0
        tangentMode: 0
      - time: 1.43333328
        value: .400000006
        inSlope: 0
        outSlope: 0
        tangentMode: 0
      - time: 1.51666665
        value: .363348424
        inSlope: 0
        outSlope: 0
        tangentMode: 0
      - time: 1.54999995
        value: .600000024
        inSlope: 0
        outSlope: 0
        tangentMode: 0
      - time: 1.63333333
        value: .563348413
        inSlope: 0
        outSlope: 0
        tangentMode: 0
      - time: 1.66666663
        value: .800000012
        inSlope: 0
        outSlope: 0
        tangentMode: 0
      - time: 1.75
        value: .763348401
        inSlope: 0
        outSlope: 0
        tangentMode: 0
      - time: 1.7833333
        value: 1
        inSlope: 0
        outSlope: 0
        tangentMode: 0
      - time: 2.8166666
        value: 0
        inSlope: 0
        outSlope: 0
        tangentMode: 0
      - time: 3.75
        value: 0
        inSlope: 0
        outSlope: 0
        tangentMode: 0
      m_PreInfinity: 2
      m_PostInfinity: 2
    attribute: pulse
    path: 
    classID: 114
    script: {fileID: 11500000, guid: 8c9b6dec59052e84d99c061c44a8ad6c, type: 3}
  m_PPtrCurves: []
  m_SampleRate: 60
  m_WrapMode: 2
  m_Bounds:
    m_Center: {x: 0, y: 0, z: 0}
    m_Extent: {x: 0, y: 0, z: 0}
  m_ClipBindingConstant:
    genericBindings: []
    pptrCurveMapping: []
  m_AnimationClipSettings:
    serializedVersion: 2
    m_StartTime: 0
    m_StopTime: 3.75
    m_OrientationOffsetY: 0
    m_Level: 0
    m_CycleOffset: 0
    m_LoopTime: 0
    m_LoopBlend: 0
    m_LoopBlendOrientation: 0
    m_LoopBlendPositionY: 0
    m_LoopBlendPositionXZ: 0
    m_KeepOriginalOrientation: 0
    m_KeepOriginalPositionY: 1
    m_KeepOriginalPositionXZ: 0
    m_HeightFromFeet: 0
    m_Mirror: 0
  m_EditorCurves:
  - curve:
      serializedVersion: 2
      m_Curve:
      - time: 0
        value: 0
        inSlope: 0
        outSlope: 0
        tangentMode: 0
      - time: 1.2833333
        value: 0
        inSlope: 0
        outSlope: 0
        tangentMode: 0
      - time: 1.31666672
        value: .200000003
        inSlope: 0
        outSlope: 0
        tangentMode: 0
      - time: 1.39999998
        value: .163348407
        inSlope: 0
        outSlope: 0
        tangentMode: 0
      - time: 1.43333328
        value: .400000006
        inSlope: 0
        outSlope: 0
        tangentMode: 0
      - time: 1.51666665
        value: .363348424
        inSlope: 0
        outSlope: 0
        tangentMode: 0
      - time: 1.54999995
        value: .600000024
        inSlope: 0
        outSlope: 0
        tangentMode: 0
      - time: 1.63333333
        value: .563348413
        inSlope: 0
        outSlope: 0
        tangentMode: 0
      - time: 1.66666663
        value: .800000012
        inSlope: 0
        outSlope: 0
        tangentMode: 0
      - time: 1.75
        value: .763348401
        inSlope: 0
        outSlope: 0
        tangentMode: 0
      - time: 1.7833333
        value: 1
        inSlope: 0
        outSlope: 0
        tangentMode: 0
      - time: 2.8166666
        value: 0
        inSlope: 0
        outSlope: 0
        tangentMode: 0
      - time: 3.75
        value: 0
        inSlope: 0
        outSlope: 0
        tangentMode: 0
      m_PreInfinity: 2
      m_PostInfinity: 2
    attribute: pulse
    path: 
    classID: 114
    script: {fileID: 11500000, guid: 8c9b6dec59052e84d99c061c44a8ad6c, type: 3}
  m_EulerEditorCurves: []
  m_Events: []
