%YAML 1.1
%TAG !u! tag:unity3d.com,2011:
--- !u!74 &7400000
AnimationClip:
  m_ObjectHideFlags: 0
  m_PrefabParentObject: {fileID: 0}
  m_PrefabInternal: {fileID: 0}
  m_Name: track_descend_read_backup
  serializedVersion: 4
  m_AnimationType: 1
  m_Compressed: 0
  m_UseHighQualityCurve: 1
  m_RotationCurves: []
  m_CompressedRotationCurves: []
  m_PositionCurves: []
  m_ScaleCurves: []
  m_FloatCurves:
  - curve:
      serializedVersion: 2
      m_Curve:
      - time: -0
        value: 0
        inSlope: 0
        outSlope: -0
        tangentMode: 17
      - time: 1.60000002
        value: 0
        inSlope: 0
        outSlope: 8.5714283
        tangentMode: 21
      - time: 1.7166667
        value: 1
        inSlope: 8.5714283
        outSlope: -0
        tangentMode: 21
      - time: 2.9666667
        value: 1
        inSlope: 0
        outSlope: 0
        tangentMode: 0
      - time: 4.05000019
        value: 1
        inSlope: 0
        outSlope: 0
        tangentMode: 0
      m_PreInfinity: 2
      m_PostInfinity: 2
    attribute: parameter0
    path: 
    classID: 114
    script: {fileID: 11500000, guid: abd145d4bc0676547a2f6e62f624c1f5, type: 3}
  - curve:
      serializedVersion: 2
      m_Curve:
      - time: -0
        value: 0
        inSlope: 0
        outSlope: 0
        tangentMode: 0
      - time: 1.60000002
        value: 0
        inSlope: 0
        outSlope: 0
        tangentMode: 0
      - time: 1.64999998
        value: 1
        inSlope: 0
        outSlope: 0
        tangentMode: 0
      - time: 1.7166667
        value: 1
        inSlope: 0
        outSlope: 0
        tangentMode: 0
      - time: 1.95000005
        value: 0
        inSlope: 0
        outSlope: 0
        tangentMode: 0
      - time: 2.9666667
        value: 0
        inSlope: 0
        outSlope: 0
        tangentMode: 0
      - time: 4.05000019
        value: 0
        inSlope: 0
        outSlope: 0
        tangentMode: 0
      m_PreInfinity: 2
      m_PostInfinity: 2
    attribute: parameter1
    path: 
    classID: 114
    script: {fileID: 11500000, guid: abd145d4bc0676547a2f6e62f624c1f5, type: 3}
  - curve:
      serializedVersion: 2
      m_Curve:
      - time: -0
        value: 0
        inSlope: 0
        outSlope: -0
        tangentMode: 17
      - time: 1.60000002
        value: 0
        inSlope: 0
        outSlope: -0
        tangentMode: 21
      - time: 1.7166667
        value: 0
        inSlope: 0
        outSlope: 8.5714283
        tangentMode: 21
      - time: 1.83333337
        value: 1
        inSlope: 8.5714283
        outSlope: -0
        tangentMode: 21
      - time: 2.9666667
        value: 1
        inSlope: 0
        outSlope: 0
        tangentMode: 0
      - time: 4.05000019
        value: 1
        inSlope: 0
        outSlope: 0
        tangentMode: 0
      m_PreInfinity: 2
      m_PostInfinity: 2
    attribute: parameter2
    path: 
    classID: 114
    script: {fileID: 11500000, guid: abd145d4bc0676547a2f6e62f624c1f5, type: 3}
  - curve:
      serializedVersion: 2
      m_Curve:
      - time: -0
        value: 0
        inSlope: 0
        outSlope: 0
        tangentMode: 0
      - time: 1.60000002
        value: 0
        inSlope: 0
        outSlope: 0
        tangentMode: 0
      - time: 1.7166667
        value: 0
        inSlope: 0
        outSlope: 0
        tangentMode: 0
      - time: 1.76666665
        value: 1
        inSlope: 0
        outSlope: 0
        tangentMode: 0
      - time: 1.83333337
        value: 1
        inSlope: 0
        outSlope: 0
        tangentMode: 0
      - time: 2.1833334
        value: 0
        inSlope: 0
        outSlope: 0
        tangentMode: 0
      - time: 2.9666667
        value: 0
        inSlope: 0
        outSlope: 0
        tangentMode: 0
      - time: 4.05000019
        value: 0
        inSlope: 0
        outSlope: 0
        tangentMode: 0
      m_PreInfinity: 2
      m_PostInfinity: 2
    attribute: parameter3
    path: 
    classID: 114
    script: {fileID: 11500000, guid: abd145d4bc0676547a2f6e62f624c1f5, type: 3}
  - curve:
      serializedVersion: 2
      m_Curve:
      - time: -0
        value: 0
        inSlope: 0
        outSlope: -0
        tangentMode: 17
      - time: 1.60000002
        value: 0
        inSlope: 0
        outSlope: -0
        tangentMode: 21
      - time: 1.83333337
        value: 0
        inSlope: 0
        outSlope: 8.5714283
        tangentMode: 21
      - time: 1.95000005
        value: 1
        inSlope: 8.5714283
        outSlope: -0
        tangentMode: 21
      - time: 2.9666667
        value: 1
        inSlope: 0
        outSlope: 0
        tangentMode: 0
      - time: 4.05000019
        value: 1
        inSlope: 0
        outSlope: 0
        tangentMode: 0
      m_PreInfinity: 2
      m_PostInfinity: 2
    attribute: parameter4
    path: 
    classID: 114
    script: {fileID: 11500000, guid: abd145d4bc0676547a2f6e62f624c1f5, type: 3}
  - curve:
      serializedVersion: 2
      m_Curve:
      - time: -0
        value: 0
        inSlope: 0
        outSlope: 0
        tangentMode: 0
      - time: 1.60000002
        value: 0
        inSlope: 0
        outSlope: 0
        tangentMode: 0
      - time: 1.83333337
        value: 0
        inSlope: 0
        outSlope: 0
        tangentMode: 0
      - time: 1.88333333
        value: 1
        inSlope: 0
        outSlope: 0
        tangentMode: 0
      - time: 1.95000005
        value: 1
        inSlope: 0
        outSlope: 0
        tangentMode: 0
      - time: 2.41666675
        value: 0
        inSlope: 0
        outSlope: 0
        tangentMode: 0
      - time: 2.9666667
        value: 0
        inSlope: 0
        outSlope: 0
        tangentMode: 0
      - time: 4.05000019
        value: 0
        inSlope: 0
        outSlope: 0
        tangentMode: 0
      m_PreInfinity: 2
      m_PostInfinity: 2
    attribute: parameter5
    path: 
    classID: 114
    script: {fileID: 11500000, guid: abd145d4bc0676547a2f6e62f624c1f5, type: 3}
  - curve:
      serializedVersion: 2
      m_Curve:
      - time: -0
        value: 0
        inSlope: 0
        outSlope: -0
        tangentMode: 17
      - time: 1.60000002
        value: 0
        inSlope: 0
        outSlope: -0
        tangentMode: 21
      - time: 1.95000005
        value: 0
        inSlope: 0
        outSlope: 8.57143688
        tangentMode: 21
      - time: 2.0666666
        value: 1
        inSlope: 8.57143688
        outSlope: -0
        tangentMode: 21
      - time: 2.9666667
        value: 1
        inSlope: 0
        outSlope: 0
        tangentMode: 0
      - time: 4.05000019
        value: 1
        inSlope: 0
        outSlope: 0
        tangentMode: 0
      m_PreInfinity: 2
      m_PostInfinity: 2
    attribute: parameter6
    path: 
    classID: 114
    script: {fileID: 11500000, guid: abd145d4bc0676547a2f6e62f624c1f5, type: 3}
  - curve:
      serializedVersion: 2
      m_Curve:
      - time: -0
        value: 0
        inSlope: 0
        outSlope: 0
        tangentMode: 0
      - time: 1.60000002
        value: 0
        inSlope: 0
        outSlope: 0
        tangentMode: 0
      - time: 1.95000005
        value: 0
        inSlope: 0
        outSlope: 0
        tangentMode: 0
      - time: 2
        value: 1
        inSlope: 0
        outSlope: 0
        tangentMode: 0
      - time: 2.0666666
        value: 1
        inSlope: 0
        outSlope: 0
        tangentMode: 0
      - time: 2.6500001
        value: 0
        inSlope: 0
        outSlope: 0
        tangentMode: 0
      - time: 2.9666667
        value: 0
        inSlope: 0
        outSlope: 0
        tangentMode: 0
      - time: 4.05000019
        value: 0
        inSlope: 0
        outSlope: 0
        tangentMode: 0
      m_PreInfinity: 2
      m_PostInfinity: 2
    attribute: parameter7
    path: 
    classID: 114
    script: {fileID: 11500000, guid: abd145d4bc0676547a2f6e62f624c1f5, type: 3}
  - curve:
      serializedVersion: 2
      m_Curve:
      - time: -0
        value: 0
        inSlope: 0
        outSlope: -0
        tangentMode: 17
      - time: 1.60000002
        value: 0
        inSlope: 0
        outSlope: -0
        tangentMode: 21
      - time: 2.0666666
        value: 0
        inSlope: 0
        outSlope: 8.57141876
        tangentMode: 21
      - time: 2.1833334
        value: 1
        inSlope: 8.57141876
        outSlope: -0
        tangentMode: 21
      - time: 2.9666667
        value: 1
        inSlope: 0
        outSlope: 0
        tangentMode: 0
      - time: 4.05000019
        value: 1
        inSlope: 0
        outSlope: 0
        tangentMode: 0
      m_PreInfinity: 2
      m_PostInfinity: 2
    attribute: parameter8
    path: 
    classID: 114
    script: {fileID: 11500000, guid: abd145d4bc0676547a2f6e62f624c1f5, type: 3}
  - curve:
      serializedVersion: 2
      m_Curve:
      - time: -0
        value: 0
        inSlope: 0
        outSlope: 0
        tangentMode: 0
      - time: 2.0666666
        value: 0
        inSlope: 0
        outSlope: 0
        tangentMode: 0
      - time: 2.11666656
        value: 1
        inSlope: 0
        outSlope: 0
        tangentMode: 0
      - time: 2.1833334
        value: 1
        inSlope: 0
        outSlope: 0
        tangentMode: 0
      - time: 2.88333344
        value: 0
        inSlope: 0
        outSlope: 0
        tangentMode: 0
      - time: 2.9666667
        value: 0
        inSlope: 0
        outSlope: 0
        tangentMode: 0
      - time: 4.05000019
        value: 0
        inSlope: 0
        outSlope: 0
        tangentMode: 0
      m_PreInfinity: 2
      m_PostInfinity: 2
    attribute: parameter9
    path: 
    classID: 114
    script: {fileID: 11500000, guid: abd145d4bc0676547a2f6e62f624c1f5, type: 3}
  m_PPtrCurves: []
  m_SampleRate: 60
  m_WrapMode: 1
  m_Bounds:
    m_Center: {x: 0, y: 0, z: 0}
    m_Extent: {x: 0, y: 0, z: 0}
  m_ClipBindingConstant:
    genericBindings: []
    pptrCurveMapping: []
  m_AnimationClipSettings:
    serializedVersion: 2
    m_StartTime: 0
    m_StopTime: 4.05000019
    m_OrientationOffsetY: 0
    m_Level: 0
    m_CycleOffset: 0
    m_LoopTime: 0
    m_LoopBlend: 0
    m_LoopBlendOrientation: 0
    m_LoopBlendPositionY: 0
    m_LoopBlendPositionXZ: 0
    m_KeepOriginalOrientation: 0
    m_KeepOriginalPositionY: 1
    m_KeepOriginalPositionXZ: 0
    m_HeightFromFeet: 0
    m_Mirror: 0
  m_EditorCurves:
  - curve:
      serializedVersion: 2
      m_Curve:
      - time: -0
        value: 0
        inSlope: 0
        outSlope: -0
        tangentMode: 17
      - time: 1.60000002
        value: 0
        inSlope: 0
        outSlope: 8.5714283
        tangentMode: 21
      - time: 1.7166667
        value: 1
        inSlope: 8.5714283
        outSlope: -0
        tangentMode: 21
      - time: 2.9666667
        value: 1
        inSlope: 0
        outSlope: 0
        tangentMode: 0
      - time: 4.05000019
        value: 1
        inSlope: 0
        outSlope: 0
        tangentMode: 0
      m_PreInfinity: 2
      m_PostInfinity: 2
    attribute: parameter0
    path: 
    classID: 114
    script: {fileID: 11500000, guid: abd145d4bc0676547a2f6e62f624c1f5, type: 3}
  - curve:
      serializedVersion: 2
      m_Curve:
      - time: -0
        value: 0
        inSlope: 0
        outSlope: 0
        tangentMode: 0
      - time: 1.60000002
        value: 0
        inSlope: 0
        outSlope: 0
        tangentMode: 0
      - time: 1.64999998
        value: 1
        inSlope: 0
        outSlope: 0
        tangentMode: 0
      - time: 1.7166667
        value: 1
        inSlope: 0
        outSlope: 0
        tangentMode: 0
      - time: 1.95000005
        value: 0
        inSlope: 0
        outSlope: 0
        tangentMode: 0
      - time: 2.9666667
        value: 0
        inSlope: 0
        outSlope: 0
        tangentMode: 0
      - time: 4.05000019
        value: 0
        inSlope: 0
        outSlope: 0
        tangentMode: 0
      m_PreInfinity: 2
      m_PostInfinity: 2
    attribute: parameter1
    path: 
    classID: 114
    script: {fileID: 11500000, guid: abd145d4bc0676547a2f6e62f624c1f5, type: 3}
  - curve:
      serializedVersion: 2
      m_Curve:
      - time: -0
        value: 0
        inSlope: 0
        outSlope: -0
        tangentMode: 17
      - time: 1.60000002
        value: 0
        inSlope: 0
        outSlope: -0
        tangentMode: 21
      - time: 1.7166667
        value: 0
        inSlope: 0
        outSlope: 8.5714283
        tangentMode: 21
      - time: 1.83333337
        value: 1
        inSlope: 8.5714283
        outSlope: -0
        tangentMode: 21
      - time: 2.9666667
        value: 1
        inSlope: 0
        outSlope: 0
        tangentMode: 0
      - time: 4.05000019
        value: 1
        inSlope: 0
        outSlope: 0
        tangentMode: 0
      m_PreInfinity: 2
      m_PostInfinity: 2
    attribute: parameter2
    path: 
    classID: 114
    script: {fileID: 11500000, guid: abd145d4bc0676547a2f6e62f624c1f5, type: 3}
  - curve:
      serializedVersion: 2
      m_Curve:
      - time: -0
        value: 0
        inSlope: 0
        outSlope: 0
        tangentMode: 0
      - time: 1.60000002
        value: 0
        inSlope: 0
        outSlope: 0
        tangentMode: 0
      - time: 1.7166667
        value: 0
        inSlope: 0
        outSlope: 0
        tangentMode: 0
      - time: 1.76666665
        value: 1
        inSlope: 0
        outSlope: 0
        tangentMode: 0
      - time: 1.83333337
        value: 1
        inSlope: 0
        outSlope: 0
        tangentMode: 0
      - time: 2.1833334
        value: 0
        inSlope: 0
        outSlope: 0
        tangentMode: 0
      - time: 2.9666667
        value: 0
        inSlope: 0
        outSlope: 0
        tangentMode: 0
      - time: 4.05000019
        value: 0
        inSlope: 0
        outSlope: 0
        tangentMode: 0
      m_PreInfinity: 2
      m_PostInfinity: 2
    attribute: parameter3
    path: 
    classID: 114
    script: {fileID: 11500000, guid: abd145d4bc0676547a2f6e62f624c1f5, type: 3}
  - curve:
      serializedVersion: 2
      m_Curve:
      - time: -0
        value: 0
        inSlope: 0
        outSlope: -0
        tangentMode: 17
      - time: 1.60000002
        value: 0
        inSlope: 0
        outSlope: -0
        tangentMode: 21
      - time: 1.83333337
        value: 0
        inSlope: 0
        outSlope: 8.5714283
        tangentMode: 21
      - time: 1.95000005
        value: 1
        inSlope: 8.5714283
        outSlope: -0
        tangentMode: 21
      - time: 2.9666667
        value: 1
        inSlope: 0
        outSlope: 0
        tangentMode: 0
      - time: 4.05000019
        value: 1
        inSlope: 0
        outSlope: 0
        tangentMode: 0
      m_PreInfinity: 2
      m_PostInfinity: 2
    attribute: parameter4
    path: 
    classID: 114
    script: {fileID: 11500000, guid: abd145d4bc0676547a2f6e62f624c1f5, type: 3}
  - curve:
      serializedVersion: 2
      m_Curve:
      - time: -0
        value: 0
        inSlope: 0
        outSlope: 0
        tangentMode: 0
      - time: 1.60000002
        value: 0
        inSlope: 0
        outSlope: 0
        tangentMode: 0
      - time: 1.83333337
        value: 0
        inSlope: 0
        outSlope: 0
        tangentMode: 0
      - time: 1.88333333
        value: 1
        inSlope: 0
        outSlope: 0
        tangentMode: 0
      - time: 1.95000005
        value: 1
        inSlope: 0
        outSlope: 0
        tangentMode: 0
      - time: 2.41666675
        value: 0
        inSlope: 0
        outSlope: 0
        tangentMode: 0
      - time: 2.9666667
        value: 0
        inSlope: 0
        outSlope: 0
        tangentMode: 0
      - time: 4.05000019
        value: 0
        inSlope: 0
        outSlope: 0
        tangentMode: 0
      m_PreInfinity: 2
      m_PostInfinity: 2
    attribute: parameter5
    path: 
    classID: 114
    script: {fileID: 11500000, guid: abd145d4bc0676547a2f6e62f624c1f5, type: 3}
  - curve:
      serializedVersion: 2
      m_Curve:
      - time: -0
        value: 0
        inSlope: 0
        outSlope: -0
        tangentMode: 17
      - time: 1.60000002
        value: 0
        inSlope: 0
        outSlope: -0
        tangentMode: 21
      - time: 1.95000005
        value: 0
        inSlope: 0
        outSlope: 8.57143688
        tangentMode: 21
      - time: 2.0666666
        value: 1
        inSlope: 8.57143688
        outSlope: -0
        tangentMode: 21
      - time: 2.9666667
        value: 1
        inSlope: 0
        outSlope: 0
        tangentMode: 0
      - time: 4.05000019
        value: 1
        inSlope: 0
        outSlope: 0
        tangentMode: 0
      m_PreInfinity: 2
      m_PostInfinity: 2
    attribute: parameter6
    path: 
    classID: 114
    script: {fileID: 11500000, guid: abd145d4bc0676547a2f6e62f624c1f5, type: 3}
  - curve:
      serializedVersion: 2
      m_Curve:
      - time: -0
        value: 0
        inSlope: 0
        outSlope: 0
        tangentMode: 0
      - time: 1.60000002
        value: 0
        inSlope: 0
        outSlope: 0
        tangentMode: 0
      - time: 1.95000005
        value: 0
        inSlope: 0
        outSlope: 0
        tangentMode: 0
      - time: 2
        value: 1
        inSlope: 0
        outSlope: 0
        tangentMode: 0
      - time: 2.0666666
        value: 1
        inSlope: 0
        outSlope: 0
        tangentMode: 0
      - time: 2.6500001
        value: 0
        inSlope: 0
        outSlope: 0
        tangentMode: 0
      - time: 2.9666667
        value: 0
        inSlope: 0
        outSlope: 0
        tangentMode: 0
      - time: 4.05000019
        value: 0
        inSlope: 0
        outSlope: 0
        tangentMode: 0
      m_PreInfinity: 2
      m_PostInfinity: 2
    attribute: parameter7
    path: 
    classID: 114
    script: {fileID: 11500000, guid: abd145d4bc0676547a2f6e62f624c1f5, type: 3}
  - curve:
      serializedVersion: 2
      m_Curve:
      - time: -0
        value: 0
        inSlope: 0
        outSlope: -0
        tangentMode: 17
      - time: 1.60000002
        value: 0
        inSlope: 0
        outSlope: -0
        tangentMode: 21
      - time: 2.0666666
        value: 0
        inSlope: 0
        outSlope: 8.57141876
        tangentMode: 21
      - time: 2.1833334
        value: 1
        inSlope: 8.57141876
        outSlope: -0
        tangentMode: 21
      - time: 2.9666667
        value: 1
        inSlope: 0
        outSlope: 0
        tangentMode: 0
      - time: 4.05000019
        value: 1
        inSlope: 0
        outSlope: 0
        tangentMode: 0
      m_PreInfinity: 2
      m_PostInfinity: 2
    attribute: parameter8
    path: 
    classID: 114
    script: {fileID: 11500000, guid: abd145d4bc0676547a2f6e62f624c1f5, type: 3}
  - curve:
      serializedVersion: 2
      m_Curve:
      - time: -0
        value: 0
        inSlope: 0
        outSlope: 0
        tangentMode: 0
      - time: 2.0666666
        value: 0
        inSlope: 0
        outSlope: 0
        tangentMode: 0
      - time: 2.11666656
        value: 1
        inSlope: 0
        outSlope: 0
        tangentMode: 0
      - time: 2.1833334
        value: 1
        inSlope: 0
        outSlope: 0
        tangentMode: 0
      - time: 2.88333344
        value: 0
        inSlope: 0
        outSlope: 0
        tangentMode: 0
      - time: 2.9666667
        value: 0
        inSlope: 0
        outSlope: 0
        tangentMode: 0
      - time: 4.05000019
        value: 0
        inSlope: 0
        outSlope: 0
        tangentMode: 0
      m_PreInfinity: 2
      m_PostInfinity: 2
    attribute: parameter9
    path: 
    classID: 114
    script: {fileID: 11500000, guid: abd145d4bc0676547a2f6e62f624c1f5, type: 3}
  m_EulerEditorCurves: []
  m_Events: []
