%YAML 1.1
%TAG !u! tag:unity3d.com,2011:
--- !u!21 &2100000
Material:
  serializedVersion: 3
  m_ObjectHideFlags: 0
  m_PrefabParentObject: {fileID: 0}
  m_PrefabInternal: {fileID: 0}
  m_Name: fog_horizon_01
  m_Shader: {fileID: 4800000, guid: 7ab22b2ddb3552649abaaaa76469f549, type: 3}
  m_ShaderKeywords: []
  m_CustomRenderQueue: -1
  m_SavedProperties:
    serializedVersion: 2
    m_TexEnvs:
      data:
        first:
          name: _MainTex
        second:
          m_Texture: {fileID: 0}
          m_Scale: {x: 1, y: 1}
          m_Offset: {x: 0, y: 0}
      data:
        first:
          name: _FogMap
        second:
          m_Texture: {fileID: 2800000, guid: 229f3288448d2254aa6fde3e1c19b5da, type: 3}
          m_Scale: {x: 1, y: 1}
          m_Offset: {x: 0, y: 0}
    m_Floats: {}
    m_Colors:
      data:
        first:
          name: _Color
        second: {r: .235294119, g: .235294119, b: .235294119, a: 1}
      data:
        first:
          name: _FogColor
        second: {r: .0784313753, g: .0784313753, b: .0784313753, a: 1}
