%YAML 1.1
%TAG !u! tag:unity3d.com,2011:
--- !u!74 &7400000
AnimationClip:
  m_ObjectHideFlags: 0
  m_PrefabParentObject: {fileID: 0}
  m_PrefabInternal: {fileID: 0}
  m_Name: Flying-Bass-Layer12-LECTURE
  serializedVersion: 4
  m_AnimationType: 2
  m_Compressed: 0
  m_UseHighQualityCurve: 1
  m_RotationCurves:
  - curve:
      serializedVersion: 2
      m_Curve:
      - time: 0
        value: {x: 0, y: 0, z: 0, w: 1}
        inSlope: {x: 3.74799695e-39, y: 4.43268343e-38, z: NaN, w: 3.74795771e-39}
        outSlope: {x: 0, y: 0, z: 0, w: 0}
        tangentMode: 0
      - time: .25
        value: {x: 0, y: 0, z: 0, w: 1}
        inSlope: {x: 0, y: 0, z: 0, w: 0}
        outSlope: {x: 0, y: 0, z: 0, w: 0}
        tangentMode: 13
      - time: .333333403
        value: {x: 0, y: 0, z: 0, w: 1}
        inSlope: {x: 0, y: 0, z: 0, w: 0}
        outSlope: {x: 0, y: 0, z: 0, w: 0}
        tangentMode: 13
      - time: .366666764
        value: {x: 0, y: 0, z: 0, w: 1}
        inSlope: {x: 0, y: 0, z: 0, w: 0}
        outSlope: {x: 0, y: 0, z: 0, w: 0}
        tangentMode: 102859432
      - time: .383333445
        value: {x: 0, y: 0, z: 0, w: 1}
        inSlope: {x: 0, y: 0, z: 0, w: 0}
        outSlope: {x: 0, y: 0, z: 0, w: 0}
        tangentMode: 0
      - time: .450000167
        value: {x: 0, y: 0, z: 0, w: 1}
        inSlope: {x: 0, y: 0, z: 0, w: 0}
        outSlope: {x: 0, y: 0, z: 0, w: 0}
        tangentMode: 0
      - time: .500000179
        value: {x: 0, y: 0, z: 0, w: 1}
        inSlope: {x: 0, y: 0, z: 0, w: 0}
        outSlope: {x: 0, y: 0, z: 0, w: 0}
        tangentMode: 39
      - time: .583333433
        value: {x: 0, y: 0, z: 0, w: 1}
        inSlope: {x: 0, y: 0, z: 0, w: 0}
        outSlope: {x: 0, y: 0, z: 0, w: 0}
        tangentMode: 1087373312
      - time: 1.16666627
        value: {x: 0, y: 0, z: 0, w: 1}
        inSlope: {x: 0, y: 0, z: 0, w: 0}
        outSlope: {x: 0, y: 0, z: 0, w: 0}
        tangentMode: 16777473
      - time: 1.86666667
        value: {x: 0, y: 0, z: 0, w: 1}
        inSlope: {x: 0, y: 0, z: 0, w: 0}
        outSlope: {x: 5.89831467e-39, y: 8.3762605e-35, z: 3.74798574e-39, w: 2.97048892e-34}
        tangentMode: 1601401697
      m_PreInfinity: 2
      m_PostInfinity: 2
    path: Flying_Bass_Layer1_01
  - curve:
      serializedVersion: 2
      m_Curve:
      - time: 0
        value: {x: 0, y: 0, z: 0, w: 1}
        inSlope: {x: 3.74799695e-39, y: 4.43268343e-38, z: NaN, w: 3.74795771e-39}
        outSlope: {x: 0, y: 0, z: 0, w: 0}
        tangentMode: 0
      - time: .25
        value: {x: 0, y: 0, z: 0, w: 1}
        inSlope: {x: 0, y: 0, z: 0, w: 0}
        outSlope: {x: 0, y: 0, z: 0, w: 0}
        tangentMode: 13
      - time: .333333403
        value: {x: 0, y: 0, z: 0, w: 1}
        inSlope: {x: 0, y: 0, z: 0, w: 0}
        outSlope: {x: 0, y: 0, z: 0, w: 0}
        tangentMode: 13
      - time: .366666764
        value: {x: 0, y: 0, z: 0, w: 1}
        inSlope: {x: 0, y: 0, z: 0, w: 0}
        outSlope: {x: 0, y: 0, z: 0, w: 0}
        tangentMode: 102802116
      - time: .383333445
        value: {x: 0, y: 0, z: 0, w: 1}
        inSlope: {x: 0, y: 0, z: 0, w: 0}
        outSlope: {x: 0, y: 0, z: 0, w: 0}
        tangentMode: 0
      - time: .450000167
        value: {x: 0, y: 0, z: 0, w: 1}
        inSlope: {x: 0, y: 0, z: 0, w: 0}
        outSlope: {x: 0, y: 0, z: 0, w: 0}
        tangentMode: 0
      - time: .500000179
        value: {x: 0, y: 0, z: 0, w: 1}
        inSlope: {x: 0, y: 0, z: 0, w: 0}
        outSlope: {x: 0, y: 0, z: 0, w: 0}
        tangentMode: 39
      - time: .583333433
        value: {x: 0, y: 0, z: 0, w: 1}
        inSlope: {x: 0, y: 0, z: 0, w: 0}
        outSlope: {x: 0, y: 0, z: 0, w: 0}
        tangentMode: 1085276160
      - time: 1.16666627
        value: {x: 0, y: 0, z: 0, w: 1}
        inSlope: {x: 0, y: 0, z: 0, w: 0}
        outSlope: {x: 0, y: 0, z: 0, w: 0}
        tangentMode: 16777473
      - time: 1.86666667
        value: {x: 0, y: 0, z: 0, w: 1}
        inSlope: {x: 0, y: 0, z: 0, w: 0}
        outSlope: {x: 5.89831467e-39, y: 1.03389825e-34, z: 3.74798574e-39, w: 2.97048892e-34}
        tangentMode: 17
      m_PreInfinity: 2
      m_PostInfinity: 2
    path: Flying_Bass_Layer1_02
  m_CompressedRotationCurves: []
  m_PositionCurves:
  - curve:
      serializedVersion: 2
      m_Curve:
      - time: 0
        value: {x: -1.5, y: 1.70000005, z: 0}
        inSlope: {x: 0, y: -6.80000019, z: 0}
        outSlope: {x: 0, y: -6.80000019, z: 0}
        tangentMode: 0
      - time: .25
        value: {x: -1.5, y: 0, z: 0}
        inSlope: {x: 0, y: 0, z: 0}
        outSlope: {x: 0, y: 0, z: 0}
        tangentMode: 0
      - time: .333333343
        value: {x: -1.5, y: .100000001, z: 0}
        inSlope: {x: 0, y: 0, z: 0}
        outSlope: {x: 0, y: 0, z: 0}
        tangentMode: 0
      - time: .5
        value: {x: -1.49999988, y: 0, z: 0}
        inSlope: {x: 0, y: 0, z: 0}
        outSlope: {x: 0, y: 0, z: 0}
        tangentMode: 0
      - time: 1.86666667
        value: {x: -1.5, y: 0, z: 0}
        inSlope: {x: 0, y: 0, z: 0}
        outSlope: {x: 0, y: 0, z: 0}
        tangentMode: 0
      m_PreInfinity: 2
      m_PostInfinity: 2
    path: Flying_Bass_Layer1_01
  - curve:
      serializedVersion: 2
      m_Curve:
      - time: 0
        value: {x: 1.5, y: 1.70000005, z: 0}
        inSlope: {x: 0, y: -6.80000019, z: 0}
        outSlope: {x: 0, y: -6.80000019, z: 0}
        tangentMode: 0
      - time: .25
        value: {x: 1.5, y: 0, z: 0}
        inSlope: {x: 0, y: 0, z: 0}
        outSlope: {x: 0, y: 0, z: 0}
        tangentMode: 0
      - time: .333333343
        value: {x: 1.5, y: .100000001, z: 0}
        inSlope: {x: 0, y: 0, z: 0}
        outSlope: {x: 0, y: 0, z: 0}
        tangentMode: 0
      - time: .5
        value: {x: 1.49999988, y: 0, z: 0}
        inSlope: {x: 0, y: 0, z: 0}
        outSlope: {x: 0, y: 0, z: 0}
        tangentMode: 0
      - time: 1.86666667
        value: {x: 1.5, y: 0, z: 0}
        inSlope: {x: 0, y: 0, z: 0}
        outSlope: {x: 0, y: 0, z: 0}
        tangentMode: 0
      m_PreInfinity: 2
      m_PostInfinity: 2
    path: Flying_Bass_Layer1_02
  m_ScaleCurves:
  - curve:
      serializedVersion: 2
      m_Curve:
      - time: .25
        value: {x: .600000024, y: .600000024, z: .600000024}
        inSlope: {x: 0, y: 0, z: 25.5000019}
        outSlope: {x: 0, y: 0, z: 25.5000019}
        tangentMode: 2037138991
      - time: .383333325
        value: {x: .600000024, y: .600000024, z: 4}
        inSlope: {x: 0, y: 0, z: 4.25}
        outSlope: {x: 0, y: 0, z: 4.25}
        tangentMode: 0
      - time: .583333313
        value: {x: .600000024, y: .600000024, z: .600000024}
        inSlope: {x: 0, y: 0, z: -30.5946445}
        outSlope: {x: 0, y: 0, z: -30.5946445}
        tangentMode: 0
      - time: 1.16666663
        value: {x: .600000024, y: .600000024, z: .600000024}
        inSlope: {x: 0, y: 0, z: 0}
        outSlope: {x: 0, y: 0, z: 0}
        tangentMode: 0
      - time: 1.86666667
        value: {x: .600000024, y: .600000024, z: .600000024}
        inSlope: {x: 0, y: 0, z: 0}
        outSlope: {x: 0, y: 0, z: 0}
        tangentMode: 19
      m_PreInfinity: 2
      m_PostInfinity: 2
    path: Flying_Bass_Layer1_01/Flying_Bass_Layer2_01
  - curve:
      serializedVersion: 2
      m_Curve:
      - time: .25
        value: {x: .600000024, y: .600000024, z: .600000024}
        inSlope: {x: 0, y: 0, z: 25.5000019}
        outSlope: {x: 0, y: 0, z: 25.5000019}
        tangentMode: 2037138991
      - time: .383333325
        value: {x: .600000024, y: .600000024, z: 4}
        inSlope: {x: 0, y: 0, z: 4.25}
        outSlope: {x: 0, y: 0, z: 4.25}
        tangentMode: 0
      - time: .583333313
        value: {x: .600000024, y: .600000024, z: .600000024}
        inSlope: {x: 0, y: 0, z: -20.0421906}
        outSlope: {x: 0, y: 0, z: -20.0421906}
        tangentMode: 0
      - time: 1.16666663
        value: {x: .600000024, y: .600000024, z: .600000024}
        inSlope: {x: 0, y: 0, z: 0}
        outSlope: {x: 0, y: 0, z: 0}
        tangentMode: 0
      - time: 1.86666667
        value: {x: .600000024, y: .600000024, z: .600000024}
        inSlope: {x: 0, y: 0, z: 0}
        outSlope: {x: 0, y: 0, z: 0}
        tangentMode: 19
      m_PreInfinity: 2
      m_PostInfinity: 2
    path: Flying_Bass_Layer1_02/Flying_Bass_Layer2_02
  m_FloatCurves:
  - curve:
      serializedVersion: 2
      m_Curve:
      - time: 0
        value: 1
        inSlope: 0
        outSlope: 0
        tangentMode: 10
      - time: 1.86666667
        value: 1
        inSlope: 0
        outSlope: 0
        tangentMode: 10
      m_PreInfinity: 2
      m_PostInfinity: 2
    attribute: material._ColorActive.a
    path: Flying_Bass_Layer1_02
    classID: 23
    script: {fileID: 0}
  - curve:
      serializedVersion: 2
      m_Curve:
      - time: 0
        value: .463235319
        inSlope: -.16832985
        outSlope: -.16832985
        tangentMode: 10
      - time: 1.86666667
        value: .149019614
        inSlope: -.16832985
        outSlope: -.16832985
        tangentMode: 10
      m_PreInfinity: 2
      m_PostInfinity: 2
    attribute: material._ColorActive.b
    path: Flying_Bass_Layer1_02
    classID: 23
    script: {fileID: 0}
  - curve:
      serializedVersion: 2
      m_Curve:
      - time: 0
        value: .392199636
        inSlope: -.151283428
        outSlope: -.151283428
        tangentMode: 10
      - time: 1.86666667
        value: .109803922
        inSlope: -.151283428
        outSlope: -.151283428
        tangentMode: 10
      m_PreInfinity: 2
      m_PostInfinity: 2
    attribute: material._ColorActive.g
    path: Flying_Bass_Layer1_02
    classID: 23
    script: {fileID: 0}
  - curve:
      serializedVersion: 2
      m_Curve:
      - time: 0
        value: .217993081
        inSlope: -.108378649
        outSlope: -.108378649
        tangentMode: 10
      - time: 1.86666667
        value: .0156862754
        inSlope: -.108378649
        outSlope: -.108378649
        tangentMode: 10
      m_PreInfinity: 2
      m_PostInfinity: 2
    attribute: material._ColorActive.r
    path: Flying_Bass_Layer1_02
    classID: 23
    script: {fileID: 0}
  - curve:
      serializedVersion: 2
      m_Curve:
      - time: .333333343
        value: 1
        inSlope: 0
        outSlope: 0
        tangentMode: 10
      - time: .449999988
        value: 1
        inSlope: 0
        outSlope: 0
        tangentMode: 10
      - time: .583333313
        value: 1
        inSlope: 0
        outSlope: 0
        tangentMode: 10
      - time: 1.86666667
        value: 1
        inSlope: 0
        outSlope: 0
        tangentMode: 10
      m_PreInfinity: 2
      m_PostInfinity: 2
    attribute: material._ColorActive.a
    path: Flying_Bass_Layer1_02/Flying_Bass_Layer2_02
    classID: 23
    script: {fileID: 0}
  - curve:
      serializedVersion: 2
      m_Curve:
      - time: .333333343
        value: .463235319
        inSlope: -3.97058916
        outSlope: -3.97058916
        tangentMode: 10
      - time: .449999988
        value: 0
        inSlope: -.248162031
        outSlope: -.248162031
        tangentMode: 10
      - time: .583333313
        value: .463235319
        inSlope: 0
        outSlope: 0
        tangentMode: 0
      - time: 1.86666667
        value: .463235319
        inSlope: 0
        outSlope: 0
        tangentMode: 10
      m_PreInfinity: 2
      m_PostInfinity: 2
    attribute: material._ColorActive.b
    path: Flying_Bass_Layer1_02/Flying_Bass_Layer2_02
    classID: 23
    script: {fileID: 0}
  - curve:
      serializedVersion: 2
      m_Curve:
      - time: .333333343
        value: .392199636
        inSlope: -3.36171174
        outSlope: -3.36171174
        tangentMode: 10
      - time: .449999988
        value: 0
        inSlope: -.210107207
        outSlope: -.210107207
        tangentMode: 10
      - time: .583333313
        value: .392199636
        inSlope: 0
        outSlope: 0
        tangentMode: 0
      - time: 1.86666667
        value: .392199636
        inSlope: 0
        outSlope: 0
        tangentMode: 10
      m_PreInfinity: 2
      m_PostInfinity: 2
    attribute: material._ColorActive.g
    path: Flying_Bass_Layer1_02/Flying_Bass_Layer2_02
    classID: 23
    script: {fileID: 0}
  - curve:
      serializedVersion: 2
      m_Curve:
      - time: .333333343
        value: .217993081
        inSlope: 6.70291758
        outSlope: 6.70291758
        tangentMode: 10
      - time: .449999988
        value: 1
        inSlope: .418932676
        outSlope: .418932676
        tangentMode: 10
      - time: .583333313
        value: .217993081
        inSlope: 0
        outSlope: 0
        tangentMode: 0
      - time: 1.86666667
        value: .217993081
        inSlope: 0
        outSlope: 0
        tangentMode: 10
      m_PreInfinity: 2
      m_PostInfinity: 2
    attribute: material._ColorActive.r
    path: Flying_Bass_Layer1_02/Flying_Bass_Layer2_02
    classID: 23
    script: {fileID: 0}
  - curve:
      serializedVersion: 2
      m_Curve:
      - time: 0
        value: .217993081
        inSlope: -.108378649
        outSlope: -.108378649
        tangentMode: 10
      - time: 1.86666667
        value: .0156862754
        inSlope: -.108378649
        outSlope: -.108378649
        tangentMode: 10
      m_PreInfinity: 2
      m_PostInfinity: 2
    attribute: material._ColorActive.r
    path: Flying_Bass_Layer1_01
    classID: 23
    script: {fileID: 0}
  - curve:
      serializedVersion: 2
      m_Curve:
      - time: 0
        value: .392199636
        inSlope: -.151283428
        outSlope: -.151283428
        tangentMode: 10
      - time: 1.86666667
        value: .109803922
        inSlope: -.151283428
        outSlope: -.151283428
        tangentMode: 10
      m_PreInfinity: 2
      m_PostInfinity: 2
    attribute: material._ColorActive.g
    path: Flying_Bass_Layer1_01
    classID: 23
    script: {fileID: 0}
  - curve:
      serializedVersion: 2
      m_Curve:
      - time: 0
        value: .463235319
        inSlope: -.16832985
        outSlope: -.16832985
        tangentMode: 10
      - time: 1.86666667
        value: .149019614
        inSlope: -.16832985
        outSlope: -.16832985
        tangentMode: 10
      m_PreInfinity: 2
      m_PostInfinity: 2
    attribute: material._ColorActive.b
    path: Flying_Bass_Layer1_01
    classID: 23
    script: {fileID: 0}
  - curve:
      serializedVersion: 2
      m_Curve:
      - time: 0
        value: 1
        inSlope: 0
        outSlope: 0
        tangentMode: 10
      - time: 1.86666667
        value: 1
        inSlope: 0
        outSlope: 0
        tangentMode: 10
      m_PreInfinity: 2
      m_PostInfinity: 2
    attribute: material._ColorActive.a
    path: Flying_Bass_Layer1_01
    classID: 23
    script: {fileID: 0}
  - curve:
      serializedVersion: 2
      m_Curve:
      - time: .333333343
        value: .217993081
        inSlope: 6.70291758
        outSlope: 6.70291758
        tangentMode: 10
      - time: .449999988
        value: 1
        inSlope: .418932676
        outSlope: .418932676
        tangentMode: 10
      - time: .583333313
        value: .217993081
        inSlope: 0
        outSlope: 0
        tangentMode: 0
      - time: 1.86666667
        value: .217993081
        inSlope: 0
        outSlope: 0
        tangentMode: 10
      m_PreInfinity: 2
      m_PostInfinity: 2
    attribute: material._ColorActive.r
    path: Flying_Bass_Layer1_01/Flying_Bass_Layer2_01
    classID: 23
    script: {fileID: 0}
  - curve:
      serializedVersion: 2
      m_Curve:
      - time: .333333343
        value: .392199636
        inSlope: -3.36171174
        outSlope: -3.36171174
        tangentMode: 10
      - time: .449999988
        value: 0
        inSlope: -.210107207
        outSlope: -.210107207
        tangentMode: 10
      - time: .583333313
        value: .392199636
        inSlope: 0
        outSlope: 0
        tangentMode: 0
      - time: 1.86666667
        value: .392199636
        inSlope: 0
        outSlope: 0
        tangentMode: 10
      m_PreInfinity: 2
      m_PostInfinity: 2
    attribute: material._ColorActive.g
    path: Flying_Bass_Layer1_01/Flying_Bass_Layer2_01
    classID: 23
    script: {fileID: 0}
  - curve:
      serializedVersion: 2
      m_Curve:
      - time: .333333343
        value: .463235319
        inSlope: -3.97058916
        outSlope: -3.97058916
        tangentMode: 10
      - time: .449999988
        value: 0
        inSlope: -.248162031
        outSlope: -.248162031
        tangentMode: 10
      - time: .583333313
        value: .463235319
        inSlope: 0
        outSlope: 0
        tangentMode: 0
      - time: 1.86666667
        value: .463235319
        inSlope: 0
        outSlope: 0
        tangentMode: 10
      m_PreInfinity: 2
      m_PostInfinity: 2
    attribute: material._ColorActive.b
    path: Flying_Bass_Layer1_01/Flying_Bass_Layer2_01
    classID: 23
    script: {fileID: 0}
  - curve:
      serializedVersion: 2
      m_Curve:
      - time: .333333343
        value: 1
        inSlope: 0
        outSlope: 0
        tangentMode: 10
      - time: .449999988
        value: 1
        inSlope: 0
        outSlope: 0
        tangentMode: 10
      - time: .583333313
        value: 1
        inSlope: 0
        outSlope: 0
        tangentMode: 10
      - time: 1.86666667
        value: 1
        inSlope: 0
        outSlope: 0
        tangentMode: 10
      m_PreInfinity: 2
      m_PostInfinity: 2
    attribute: material._ColorActive.a
    path: Flying_Bass_Layer1_01/Flying_Bass_Layer2_01
    classID: 23
    script: {fileID: 0}
  m_PPtrCurves: []
  m_SampleRate: 60
  m_WrapMode: 0
  m_Bounds:
    m_Center: {x: 0, y: 0, z: 0}
    m_Extent: {x: 0, y: 0, z: 0}
  m_ClipBindingConstant:
    genericBindings:
    - path: 44954469
      attribute: 1
      script: {fileID: 0}
      classID: 4
      customType: 0
      isPPtrCurve: 0
    - path: 2611258079
      attribute: 1
      script: {fileID: 0}
      classID: 4
      customType: 0
      isPPtrCurve: 0
    - path: 44954469
      attribute: 2
      script: {fileID: 0}
      classID: 4
      customType: 0
      isPPtrCurve: 0
    - path: 2611258079
      attribute: 2
      script: {fileID: 0}
      classID: 4
      customType: 0
      isPPtrCurve: 0
    - path: 1994428761
      attribute: 3
      script: {fileID: 0}
      classID: 4
      customType: 0
      isPPtrCurve: 0
    - path: 2567764446
      attribute: 3
      script: {fileID: 0}
      classID: 4
      customType: 0
      isPPtrCurve: 0
    - path: 2611258079
      attribute: 1869052467
      script: {fileID: 0}
      classID: 23
      customType: 22
      isPPtrCurve: 0
    - path: 2611258079
      attribute: 1600617011
      script: {fileID: 0}
      classID: 23
      customType: 22
      isPPtrCurve: 0
    - path: 2611258079
      attribute: 1332181555
      script: {fileID: 0}
      classID: 23
      customType: 22
      isPPtrCurve: 0
    - path: 2567764446
      attribute: 1869052467
      script: {fileID: 0}
      classID: 23
      customType: 22
      isPPtrCurve: 0
    - path: 2567764446
      attribute: 1600617011
      script: {fileID: 0}
      classID: 23
      customType: 22
      isPPtrCurve: 0
    - path: 2567764446
      attribute: 1332181555
      script: {fileID: 0}
      classID: 23
      customType: 22
      isPPtrCurve: 0
    - path: 44954469
      attribute: 1332181555
      script: {fileID: 0}
      classID: 23
      customType: 22
      isPPtrCurve: 0
    - path: 44954469
      attribute: 1600617011
      script: {fileID: 0}
      classID: 23
      customType: 22
      isPPtrCurve: 0
    - path: 44954469
      attribute: 1869052467
      script: {fileID: 0}
      classID: 23
      customType: 22
      isPPtrCurve: 0
    - path: 1994428761
      attribute: 1332181555
      script: {fileID: 0}
      classID: 23
      customType: 22
      isPPtrCurve: 0
    - path: 1994428761
      attribute: 1600617011
      script: {fileID: 0}
      classID: 23
      customType: 22
      isPPtrCurve: 0
    - path: 1994428761
      attribute: 1869052467
      script: {fileID: 0}
      classID: 23
      customType: 22
      isPPtrCurve: 0
    - path: 2611258079
      attribute: 2137487923
      script: {fileID: 0}
      classID: 23
      customType: 22
      isPPtrCurve: 0
    - path: 2567764446
      attribute: 2137487923
      script: {fileID: 0}
      classID: 23
      customType: 22
      isPPtrCurve: 0
    - path: 44954469
      attribute: 2137487923
      script: {fileID: 0}
      classID: 23
      customType: 22
      isPPtrCurve: 0
    - path: 1994428761
      attribute: 2137487923
      script: {fileID: 0}
      classID: 23
      customType: 22
      isPPtrCurve: 0
    pptrCurveMapping: []
  m_AnimationClipSettings:
    serializedVersion: 2
    m_StartTime: 0
    m_StopTime: 1.86666667
    m_OrientationOffsetY: 0
    m_Level: 0
    m_CycleOffset: 0
    m_LoopTime: 1
    m_LoopBlend: 0
    m_LoopBlendOrientation: 0
    m_LoopBlendPositionY: 0
    m_LoopBlendPositionXZ: 0
    m_KeepOriginalOrientation: 0
    m_KeepOriginalPositionY: 1
    m_KeepOriginalPositionXZ: 0
    m_HeightFromFeet: 0
    m_Mirror: 0
  m_EditorCurves:
  - curve:
      serializedVersion: 2
      m_Curve:
      - time: 0
        value: -1.5
        inSlope: 0
        outSlope: 0
        tangentMode: 10
      - time: 1.86666667
        value: -1.5
        inSlope: 0
        outSlope: 0
        tangentMode: 10
      m_PreInfinity: 2
      m_PostInfinity: 2
    attribute: m_LocalPosition.x
    path: Flying_Bass_Layer1_01
    classID: 4
    script: {fileID: 0}
  - curve:
      serializedVersion: 2
      m_Curve:
      - time: 0
        value: 1.70000005
        inSlope: -6.80000019
        outSlope: -6.80000019
        tangentMode: 10
      - time: .25
        value: 0
        inSlope: 0
        outSlope: 0
        tangentMode: 0
      - time: .333333343
        value: .100000001
        inSlope: 0
        outSlope: 0
        tangentMode: 0
      - time: .5
        value: 0
        inSlope: 0
        outSlope: 0
        tangentMode: 0
      - time: 1.86666667
        value: 0
        inSlope: 0
        outSlope: 0
        tangentMode: 10
      m_PreInfinity: 2
      m_PostInfinity: 2
    attribute: m_LocalPosition.y
    path: Flying_Bass_Layer1_01
    classID: 4
    script: {fileID: 0}
  - curve:
      serializedVersion: 2
      m_Curve:
      - time: 0
        value: 0
        inSlope: 0
        outSlope: 0
        tangentMode: 10
      - time: 1.86666667
        value: 0
        inSlope: 0
        outSlope: 0
        tangentMode: 10
      m_PreInfinity: 2
      m_PostInfinity: 2
    attribute: m_LocalPosition.z
    path: Flying_Bass_Layer1_01
    classID: 4
    script: {fileID: 0}
  - curve:
      serializedVersion: 2
      m_Curve:
      - time: 0
        value: 1
        inSlope: 0
        outSlope: 0
        tangentMode: 10
      - time: 1.86666667
        value: 1
        inSlope: 0
        outSlope: 0
        tangentMode: 10
      m_PreInfinity: 2
      m_PostInfinity: 2
    attribute: material._ColorActive.a
    path: Flying_Bass_Layer1_02
    classID: 23
    script: {fileID: 0}
  - curve:
      serializedVersion: 2
      m_Curve:
      - time: 0
        value: .463235319
        inSlope: -.16832985
        outSlope: -.16832985
        tangentMode: 10
      - time: 1.86666667
        value: .149019614
        inSlope: -.16832985
        outSlope: -.16832985
        tangentMode: 10
      m_PreInfinity: 2
      m_PostInfinity: 2
    attribute: material._ColorActive.b
    path: Flying_Bass_Layer1_02
    classID: 23
    script: {fileID: 0}
  - curve:
      serializedVersion: 2
      m_Curve:
      - time: 0
        value: .392199636
        inSlope: -.151283428
        outSlope: -.151283428
        tangentMode: 10
      - time: 1.86666667
        value: .109803922
        inSlope: -.151283428
        outSlope: -.151283428
        tangentMode: 10
      m_PreInfinity: 2
      m_PostInfinity: 2
    attribute: material._ColorActive.g
    path: Flying_Bass_Layer1_02
    classID: 23
    script: {fileID: 0}
  - curve:
      serializedVersion: 2
      m_Curve:
      - time: 0
        value: .217993081
        inSlope: -.108378649
        outSlope: -.108378649
        tangentMode: 10
      - time: 1.86666667
        value: .0156862754
        inSlope: -.108378649
        outSlope: -.108378649
        tangentMode: 10
      m_PreInfinity: 2
      m_PostInfinity: 2
    attribute: material._ColorActive.r
    path: Flying_Bass_Layer1_02
    classID: 23
    script: {fileID: 0}
  - curve:
      serializedVersion: 2
      m_Curve:
      - time: 0
        value: 1.5
        inSlope: 0
        outSlope: 0
        tangentMode: 10
      - time: 1.86666667
        value: 1.5
        inSlope: 0
        outSlope: 0
        tangentMode: 10
      m_PreInfinity: 2
      m_PostInfinity: 2
    attribute: m_LocalPosition.x
    path: Flying_Bass_Layer1_02
    classID: 4
    script: {fileID: 0}
  - curve:
      serializedVersion: 2
      m_Curve:
      - time: 0
        value: 1.70000005
        inSlope: -6.80000019
        outSlope: -6.80000019
        tangentMode: 10
      - time: .25
        value: 0
        inSlope: 0
        outSlope: 0
        tangentMode: 0
      - time: .333333343
        value: .100000001
        inSlope: 0
        outSlope: 0
        tangentMode: 0
      - time: .5
        value: 0
        inSlope: 0
        outSlope: 0
        tangentMode: 0
      - time: 1.86666667
        value: 0
        inSlope: 0
        outSlope: 0
        tangentMode: 10
      m_PreInfinity: 2
      m_PostInfinity: 2
    attribute: m_LocalPosition.y
    path: Flying_Bass_Layer1_02
    classID: 4
    script: {fileID: 0}
  - curve:
      serializedVersion: 2
      m_Curve:
      - time: 0
        value: 0
        inSlope: 0
        outSlope: 0
        tangentMode: 10
      - time: 1.86666667
        value: 0
        inSlope: 0
        outSlope: 0
        tangentMode: 10
      m_PreInfinity: 2
      m_PostInfinity: 2
    attribute: m_LocalPosition.z
    path: Flying_Bass_Layer1_02
    classID: 4
    script: {fileID: 0}
  - curve:
      serializedVersion: 2
      m_Curve:
      - time: .333333343
        value: 1
        inSlope: 0
        outSlope: 0
        tangentMode: 10
      - time: .449999988
        value: 1
        inSlope: 0
        outSlope: 0
        tangentMode: 10
      - time: .583333313
        value: 1
        inSlope: 0
        outSlope: 0
        tangentMode: 10
      - time: 1.86666667
        value: 1
        inSlope: 0
        outSlope: 0
        tangentMode: 10
      m_PreInfinity: 2
      m_PostInfinity: 2
    attribute: material._ColorActive.a
    path: Flying_Bass_Layer1_02/Flying_Bass_Layer2_02
    classID: 23
    script: {fileID: 0}
  - curve:
      serializedVersion: 2
      m_Curve:
      - time: .333333343
        value: .463235319
        inSlope: -3.97058916
        outSlope: -3.97058916
        tangentMode: 10
      - time: .449999988
        value: 0
        inSlope: -.248162031
        outSlope: -.248162031
        tangentMode: 10
      - time: .583333313
        value: .463235319
        inSlope: 0
        outSlope: 0
        tangentMode: 0
      - time: 1.86666667
        value: .463235319
        inSlope: 0
        outSlope: 0
        tangentMode: 10
      m_PreInfinity: 2
      m_PostInfinity: 2
    attribute: material._ColorActive.b
    path: Flying_Bass_Layer1_02/Flying_Bass_Layer2_02
    classID: 23
    script: {fileID: 0}
  - curve:
      serializedVersion: 2
      m_Curve:
      - time: .333333343
        value: .392199636
        inSlope: -3.36171174
        outSlope: -3.36171174
        tangentMode: 10
      - time: .449999988
        value: 0
        inSlope: -.210107207
        outSlope: -.210107207
        tangentMode: 10
      - time: .583333313
        value: .392199636
        inSlope: 0
        outSlope: 0
        tangentMode: 0
      - time: 1.86666667
        value: .392199636
        inSlope: 0
        outSlope: 0
        tangentMode: 10
      m_PreInfinity: 2
      m_PostInfinity: 2
    attribute: material._ColorActive.g
    path: Flying_Bass_Layer1_02/Flying_Bass_Layer2_02
    classID: 23
    script: {fileID: 0}
  - curve:
      serializedVersion: 2
      m_Curve:
      - time: .333333343
        value: .217993081
        inSlope: 6.70291758
        outSlope: 6.70291758
        tangentMode: 10
      - time: .449999988
        value: 1
        inSlope: .418932676
        outSlope: .418932676
        tangentMode: 10
      - time: .583333313
        value: .217993081
        inSlope: 0
        outSlope: 0
        tangentMode: 0
      - time: 1.86666667
        value: .217993081
        inSlope: 0
        outSlope: 0
        tangentMode: 10
      m_PreInfinity: 2
      m_PostInfinity: 2
    attribute: material._ColorActive.r
    path: Flying_Bass_Layer1_02/Flying_Bass_Layer2_02
    classID: 23
    script: {fileID: 0}
  - curve:
      serializedVersion: 2
      m_Curve:
      - time: 0
        value: .217993081
        inSlope: -.108378649
        outSlope: -.108378649
        tangentMode: 10
      - time: 1.86666667
        value: .0156862754
        inSlope: -.108378649
        outSlope: -.108378649
        tangentMode: 10
      m_PreInfinity: 2
      m_PostInfinity: 2
    attribute: material._ColorActive.r
    path: Flying_Bass_Layer1_01
    classID: 23
    script: {fileID: 0}
  - curve:
      serializedVersion: 2
      m_Curve:
      - time: 0
        value: .392199636
        inSlope: -.151283428
        outSlope: -.151283428
        tangentMode: 10
      - time: 1.86666667
        value: .109803922
        inSlope: -.151283428
        outSlope: -.151283428
        tangentMode: 10
      m_PreInfinity: 2
      m_PostInfinity: 2
    attribute: material._ColorActive.g
    path: Flying_Bass_Layer1_01
    classID: 23
    script: {fileID: 0}
  - curve:
      serializedVersion: 2
      m_Curve:
      - time: 0
        value: .463235319
        inSlope: -.16832985
        outSlope: -.16832985
        tangentMode: 10
      - time: 1.86666667
        value: .149019614
        inSlope: -.16832985
        outSlope: -.16832985
        tangentMode: 10
      m_PreInfinity: 2
      m_PostInfinity: 2
    attribute: material._ColorActive.b
    path: Flying_Bass_Layer1_01
    classID: 23
    script: {fileID: 0}
  - curve:
      serializedVersion: 2
      m_Curve:
      - time: 0
        value: 1
        inSlope: 0
        outSlope: 0
        tangentMode: 10
      - time: 1.86666667
        value: 1
        inSlope: 0
        outSlope: 0
        tangentMode: 10
      m_PreInfinity: 2
      m_PostInfinity: 2
    attribute: material._ColorActive.a
    path: Flying_Bass_Layer1_01
    classID: 23
    script: {fileID: 0}
  - curve:
      serializedVersion: 2
      m_Curve:
      - time: 0
        value: 1
        inSlope: 3.74795771e-39
        outSlope: 0
        tangentMode: 0
      - time: .25
        value: 1
        inSlope: 0
        outSlope: 0
        tangentMode: 0
      - time: .333333403
        value: 1
        inSlope: 0
        outSlope: 0
        tangentMode: 0
      - time: .366666764
        value: 1
        inSlope: 0
        outSlope: 0
        tangentMode: 0
      - time: .383333445
        value: 1
        inSlope: 0
        outSlope: 0
        tangentMode: 0
      - time: .450000167
        value: 1
        inSlope: 0
        outSlope: 0
        tangentMode: 0
      - time: .500000179
        value: 1
        inSlope: 0
        outSlope: 0
        tangentMode: 0
      - time: .583333433
        value: 1
        inSlope: 0
        outSlope: 0
        tangentMode: 0
      - time: 1.16666627
        value: 1
        inSlope: 0
        outSlope: 0
        tangentMode: 0
      - time: 1.86666667
        value: 1
        inSlope: 0
        outSlope: 2.97048892e-34
        tangentMode: 0
      m_PreInfinity: 2
      m_PostInfinity: 2
    attribute: m_LocalRotation.w
    path: Flying_Bass_Layer1_01
    classID: 4
    script: {fileID: 0}
  - curve:
      serializedVersion: 2
      m_Curve:
      - time: 0
        value: 0
        inSlope: NaN
        outSlope: 0
        tangentMode: 0
      - time: .25
        value: 0
        inSlope: 0
        outSlope: 0
        tangentMode: 0
      - time: .333333403
        value: 0
        inSlope: 0
        outSlope: 0
        tangentMode: 0
      - time: .366666764
        value: 0
        inSlope: 0
        outSlope: 0
        tangentMode: 0
      - time: .383333445
        value: 0
        inSlope: 0
        outSlope: 0
        tangentMode: 0
      - time: .450000167
        value: 0
        inSlope: 0
        outSlope: 0
        tangentMode: 0
      - time: .500000179
        value: 0
        inSlope: 0
        outSlope: 0
        tangentMode: 0
      - time: .583333433
        value: 0
        inSlope: 0
        outSlope: 0
        tangentMode: 0
      - time: 1.16666627
        value: 0
        inSlope: 0
        outSlope: 0
        tangentMode: 0
      - time: 1.86666667
        value: 0
        inSlope: 0
        outSlope: 3.74798574e-39
        tangentMode: 0
      m_PreInfinity: 2
      m_PostInfinity: 2
    attribute: m_LocalRotation.z
    path: Flying_Bass_Layer1_01
    classID: 4
    script: {fileID: 0}
  - curve:
      serializedVersion: 2
      m_Curve:
      - time: 0
        value: 0
        inSlope: 4.43268343e-38
        outSlope: 0
        tangentMode: 0
      - time: .25
        value: 0
        inSlope: 0
        outSlope: 0
        tangentMode: 0
      - time: .333333403
        value: 0
        inSlope: 0
        outSlope: 0
        tangentMode: 0
      - time: .366666764
        value: 0
        inSlope: 0
        outSlope: 0
        tangentMode: 0
      - time: .383333445
        value: 0
        inSlope: 0
        outSlope: 0
        tangentMode: 0
      - time: .450000167
        value: 0
        inSlope: 0
        outSlope: 0
        tangentMode: 0
      - time: .500000179
        value: 0
        inSlope: 0
        outSlope: 0
        tangentMode: 0
      - time: .583333433
        value: 0
        inSlope: 0
        outSlope: 0
        tangentMode: 0
      - time: 1.16666627
        value: 0
        inSlope: 0
        outSlope: 0
        tangentMode: 0
      - time: 1.86666667
        value: 0
        inSlope: 0
        outSlope: 8.3762605e-35
        tangentMode: 0
      m_PreInfinity: 2
      m_PostInfinity: 2
    attribute: m_LocalRotation.y
    path: Flying_Bass_Layer1_01
    classID: 4
    script: {fileID: 0}
  - curve:
      serializedVersion: 2
      m_Curve:
      - time: 0
        value: 0
        inSlope: 3.74799695e-39
        outSlope: 0
        tangentMode: 0
      - time: .25
        value: 0
        inSlope: 0
        outSlope: 0
        tangentMode: 0
      - time: .333333403
        value: 0
        inSlope: 0
        outSlope: 0
        tangentMode: 0
      - time: .366666764
        value: 0
        inSlope: 0
        outSlope: 0
        tangentMode: 0
      - time: .383333445
        value: 0
        inSlope: 0
        outSlope: 0
        tangentMode: 0
      - time: .450000167
        value: 0
        inSlope: 0
        outSlope: 0
        tangentMode: 0
      - time: .500000179
        value: 0
        inSlope: 0
        outSlope: 0
        tangentMode: 0
      - time: .583333433
        value: 0
        inSlope: 0
        outSlope: 0
        tangentMode: 0
      - time: 1.16666627
        value: 0
        inSlope: 0
        outSlope: 0
        tangentMode: 0
      - time: 1.86666667
        value: 0
        inSlope: 0
        outSlope: 5.89831467e-39
        tangentMode: 0
      m_PreInfinity: 2
      m_PostInfinity: 2
    attribute: m_LocalRotation.x
    path: Flying_Bass_Layer1_01
    classID: 4
    script: {fileID: 0}
  - curve:
      serializedVersion: 2
      m_Curve:
      - time: .25
        value: .600000024
        inSlope: 0
        outSlope: 0
        tangentMode: 10
      - time: .383333325
        value: .600000024
        inSlope: 0
        outSlope: 0
        tangentMode: 10
      - time: .583333313
        value: .600000024
        inSlope: 0
        outSlope: 0
        tangentMode: 10
      - time: 1.16666663
        value: .600000024
        inSlope: 0
        outSlope: 0
        tangentMode: 10
      - time: 1.86666667
        value: .600000024
        inSlope: 0
        outSlope: 0
        tangentMode: 10
      m_PreInfinity: 2
      m_PostInfinity: 2
    attribute: m_LocalScale.x
    path: Flying_Bass_Layer1_01/Flying_Bass_Layer2_01
    classID: 4
    script: {fileID: 0}
  - curve:
      serializedVersion: 2
      m_Curve:
      - time: .25
        value: .600000024
        inSlope: 0
        outSlope: 0
        tangentMode: 10
      - time: .383333325
        value: .600000024
        inSlope: 0
        outSlope: 0
        tangentMode: 10
      - time: .583333313
        value: .600000024
        inSlope: 0
        outSlope: 0
        tangentMode: 10
      - time: 1.16666663
        value: .600000024
        inSlope: 0
        outSlope: 0
        tangentMode: 10
      - time: 1.86666667
        value: .600000024
        inSlope: 0
        outSlope: 0
        tangentMode: 10
      m_PreInfinity: 2
      m_PostInfinity: 2
    attribute: m_LocalScale.y
    path: Flying_Bass_Layer1_01/Flying_Bass_Layer2_01
    classID: 4
    script: {fileID: 0}
  - curve:
      serializedVersion: 2
      m_Curve:
      - time: .25
        value: .600000024
        inSlope: 25.5000019
        outSlope: 25.5000019
        tangentMode: 10
      - time: .383333325
        value: 4
        inSlope: 4.25
        outSlope: 4.25
        tangentMode: 10
      - time: .583333313
        value: .600000024
        inSlope: -30.5946445
        outSlope: -30.5946445
        tangentMode: 0
      - time: 1.16666663
        value: .600000024
        inSlope: 0
        outSlope: 0
        tangentMode: 10
      - time: 1.86666667
        value: .600000024
        inSlope: 0
        outSlope: 0
        tangentMode: 10
      m_PreInfinity: 2
      m_PostInfinity: 2
    attribute: m_LocalScale.z
    path: Flying_Bass_Layer1_01/Flying_Bass_Layer2_01
    classID: 4
    script: {fileID: 0}
  - curve:
      serializedVersion: 2
      m_Curve:
      - time: .25
        value: .600000024
        inSlope: 0
        outSlope: 0
        tangentMode: 10
      - time: .383333325
        value: .600000024
        inSlope: 0
        outSlope: 0
        tangentMode: 10
      - time: .583333313
        value: .600000024
        inSlope: 0
        outSlope: 0
        tangentMode: 10
      - time: 1.16666663
        value: .600000024
        inSlope: 0
        outSlope: 0
        tangentMode: 10
      - time: 1.86666667
        value: .600000024
        inSlope: 0
        outSlope: 0
        tangentMode: 10
      m_PreInfinity: 2
      m_PostInfinity: 2
    attribute: m_LocalScale.x
    path: Flying_Bass_Layer1_02/Flying_Bass_Layer2_02
    classID: 4
    script: {fileID: 0}
  - curve:
      serializedVersion: 2
      m_Curve:
      - time: .25
        value: .600000024
        inSlope: 0
        outSlope: 0
        tangentMode: 10
      - time: .383333325
        value: .600000024
        inSlope: 0
        outSlope: 0
        tangentMode: 10
      - time: .583333313
        value: .600000024
        inSlope: 0
        outSlope: 0
        tangentMode: 10
      - time: 1.16666663
        value: .600000024
        inSlope: 0
        outSlope: 0
        tangentMode: 10
      - time: 1.86666667
        value: .600000024
        inSlope: 0
        outSlope: 0
        tangentMode: 10
      m_PreInfinity: 2
      m_PostInfinity: 2
    attribute: m_LocalScale.y
    path: Flying_Bass_Layer1_02/Flying_Bass_Layer2_02
    classID: 4
    script: {fileID: 0}
  - curve:
      serializedVersion: 2
      m_Curve:
      - time: .25
        value: .600000024
        inSlope: 25.5000019
        outSlope: 25.5000019
        tangentMode: 10
      - time: .383333325
        value: 4
        inSlope: 4.25
        outSlope: 4.25
        tangentMode: 10
      - time: .583333313
        value: .600000024
        inSlope: -20.0421906
        outSlope: -20.0421906
        tangentMode: 0
      - time: 1.16666663
        value: .600000024
        inSlope: 0
        outSlope: 0
        tangentMode: 10
      - time: 1.86666667
        value: .600000024
        inSlope: 0
        outSlope: 0
        tangentMode: 10
      m_PreInfinity: 2
      m_PostInfinity: 2
    attribute: m_LocalScale.z
    path: Flying_Bass_Layer1_02/Flying_Bass_Layer2_02
    classID: 4
    script: {fileID: 0}
  - curve:
      serializedVersion: 2
      m_Curve:
      - time: .333333343
        value: .217993081
        inSlope: 6.70291758
        outSlope: 6.70291758
        tangentMode: 10
      - time: .449999988
        value: 1
        inSlope: .418932676
        outSlope: .418932676
        tangentMode: 10
      - time: .583333313
        value: .217993081
        inSlope: 0
        outSlope: 0
        tangentMode: 0
      - time: 1.86666667
        value: .217993081
        inSlope: 0
        outSlope: 0
        tangentMode: 10
      m_PreInfinity: 2
      m_PostInfinity: 2
    attribute: material._ColorActive.r
    path: Flying_Bass_Layer1_01/Flying_Bass_Layer2_01
    classID: 23
    script: {fileID: 0}
  - curve:
      serializedVersion: 2
      m_Curve:
      - time: .333333343
        value: .392199636
        inSlope: -3.36171174
        outSlope: -3.36171174
        tangentMode: 10
      - time: .449999988
        value: 0
        inSlope: -.210107207
        outSlope: -.210107207
        tangentMode: 10
      - time: .583333313
        value: .392199636
        inSlope: 0
        outSlope: 0
        tangentMode: 0
      - time: 1.86666667
        value: .392199636
        inSlope: 0
        outSlope: 0
        tangentMode: 10
      m_PreInfinity: 2
      m_PostInfinity: 2
    attribute: material._ColorActive.g
    path: Flying_Bass_Layer1_01/Flying_Bass_Layer2_01
    classID: 23
    script: {fileID: 0}
  - curve:
      serializedVersion: 2
      m_Curve:
      - time: .333333343
        value: .463235319
        inSlope: -3.97058916
        outSlope: -3.97058916
        tangentMode: 10
      - time: .449999988
        value: 0
        inSlope: -.248162031
        outSlope: -.248162031
        tangentMode: 10
      - time: .583333313
        value: .463235319
        inSlope: 0
        outSlope: 0
        tangentMode: 0
      - time: 1.86666667
        value: .463235319
        inSlope: 0
        outSlope: 0
        tangentMode: 10
      m_PreInfinity: 2
      m_PostInfinity: 2
    attribute: material._ColorActive.b
    path: Flying_Bass_Layer1_01/Flying_Bass_Layer2_01
    classID: 23
    script: {fileID: 0}
  - curve:
      serializedVersion: 2
      m_Curve:
      - time: .333333343
        value: 1
        inSlope: 0
        outSlope: 0
        tangentMode: 10
      - time: .449999988
        value: 1
        inSlope: 0
        outSlope: 0
        tangentMode: 10
      - time: .583333313
        value: 1
        inSlope: 0
        outSlope: 0
        tangentMode: 10
      - time: 1.86666667
        value: 1
        inSlope: 0
        outSlope: 0
        tangentMode: 10
      m_PreInfinity: 2
      m_PostInfinity: 2
    attribute: material._ColorActive.a
    path: Flying_Bass_Layer1_01/Flying_Bass_Layer2_01
    classID: 23
    script: {fileID: 0}
  - curve:
      serializedVersion: 2
      m_Curve:
      - time: 0
        value: 0
        inSlope: 3.74799695e-39
        outSlope: 0
        tangentMode: 0
      - time: .25
        value: 0
        inSlope: 0
        outSlope: 0
        tangentMode: 0
      - time: .333333403
        value: 0
        inSlope: 0
        outSlope: 0
        tangentMode: 0
      - time: .366666764
        value: 0
        inSlope: 0
        outSlope: 0
        tangentMode: 0
      - time: .383333445
        value: 0
        inSlope: 0
        outSlope: 0
        tangentMode: 0
      - time: .450000167
        value: 0
        inSlope: 0
        outSlope: 0
        tangentMode: 0
      - time: .500000179
        value: 0
        inSlope: 0
        outSlope: 0
        tangentMode: 0
      - time: .583333433
        value: 0
        inSlope: 0
        outSlope: 0
        tangentMode: 0
      - time: 1.16666627
        value: 0
        inSlope: 0
        outSlope: 0
        tangentMode: 0
      - time: 1.86666667
        value: 0
        inSlope: 0
        outSlope: 5.89831467e-39
        tangentMode: 0
      m_PreInfinity: 2
      m_PostInfinity: 2
    attribute: m_LocalRotation.x
    path: Flying_Bass_Layer1_02
    classID: 4
    script: {fileID: 0}
  - curve:
      serializedVersion: 2
      m_Curve:
      - time: 0
        value: 0
        inSlope: 4.43268343e-38
        outSlope: 0
        tangentMode: 0
      - time: .25
        value: 0
        inSlope: 0
        outSlope: 0
        tangentMode: 0
      - time: .333333403
        value: 0
        inSlope: 0
        outSlope: 0
        tangentMode: 0
      - time: .366666764
        value: 0
        inSlope: 0
        outSlope: 0
        tangentMode: 0
      - time: .383333445
        value: 0
        inSlope: 0
        outSlope: 0
        tangentMode: 0
      - time: .450000167
        value: 0
        inSlope: 0
        outSlope: 0
        tangentMode: 0
      - time: .500000179
        value: 0
        inSlope: 0
        outSlope: 0
        tangentMode: 0
      - time: .583333433
        value: 0
        inSlope: 0
        outSlope: 0
        tangentMode: 0
      - time: 1.16666627
        value: 0
        inSlope: 0
        outSlope: 0
        tangentMode: 0
      - time: 1.86666667
        value: 0
        inSlope: 0
        outSlope: 1.03389825e-34
        tangentMode: 0
      m_PreInfinity: 2
      m_PostInfinity: 2
    attribute: m_LocalRotation.y
    path: Flying_Bass_Layer1_02
    classID: 4
    script: {fileID: 0}
  - curve:
      serializedVersion: 2
      m_Curve:
      - time: 0
        value: 0
        inSlope: NaN
        outSlope: 0
        tangentMode: 0
      - time: .25
        value: 0
        inSlope: 0
        outSlope: 0
        tangentMode: 0
      - time: .333333403
        value: 0
        inSlope: 0
        outSlope: 0
        tangentMode: 0
      - time: .366666764
        value: 0
        inSlope: 0
        outSlope: 0
        tangentMode: 0
      - time: .383333445
        value: 0
        inSlope: 0
        outSlope: 0
        tangentMode: 0
      - time: .450000167
        value: 0
        inSlope: 0
        outSlope: 0
        tangentMode: 0
      - time: .500000179
        value: 0
        inSlope: 0
        outSlope: 0
        tangentMode: 0
      - time: .583333433
        value: 0
        inSlope: 0
        outSlope: 0
        tangentMode: 0
      - time: 1.16666627
        value: 0
        inSlope: 0
        outSlope: 0
        tangentMode: 0
      - time: 1.86666667
        value: 0
        inSlope: 0
        outSlope: 3.74798574e-39
        tangentMode: 0
      m_PreInfinity: 2
      m_PostInfinity: 2
    attribute: m_LocalRotation.z
    path: Flying_Bass_Layer1_02
    classID: 4
    script: {fileID: 0}
  - curve:
      serializedVersion: 2
      m_Curve:
      - time: 0
        value: 1
        inSlope: 3.74795771e-39
        outSlope: 0
        tangentMode: 0
      - time: .25
        value: 1
        inSlope: 0
        outSlope: 0
        tangentMode: 0
      - time: .333333403
        value: 1
        inSlope: 0
        outSlope: 0
        tangentMode: 0
      - time: .366666764
        value: 1
        inSlope: 0
        outSlope: 0
        tangentMode: 0
      - time: .383333445
        value: 1
        inSlope: 0
        outSlope: 0
        tangentMode: 0
      - time: .450000167
        value: 1
        inSlope: 0
        outSlope: 0
        tangentMode: 0
      - time: .500000179
        value: 1
        inSlope: 0
        outSlope: 0
        tangentMode: 0
      - time: .583333433
        value: 1
        inSlope: 0
        outSlope: 0
        tangentMode: 0
      - time: 1.16666627
        value: 1
        inSlope: 0
        outSlope: 0
        tangentMode: 0
      - time: 1.86666667
        value: 1
        inSlope: 0
        outSlope: 2.97048892e-34
        tangentMode: 0
      m_PreInfinity: 2
      m_PostInfinity: 2
    attribute: m_LocalRotation.w
    path: Flying_Bass_Layer1_02
    classID: 4
    script: {fileID: 0}
  m_EulerEditorCurves:
  - curve:
      serializedVersion: 2
      m_Curve:
      - time: 0
        value: -0
        inSlope: 0
        outSlope: 0
        tangentMode: 0
      - time: .25
        value: -0
        inSlope: 0
        outSlope: 0
        tangentMode: 0
      - time: .333333403
        value: -0
        inSlope: 0
        outSlope: 0
        tangentMode: 0
      - time: .366666764
        value: -0
        inSlope: 0
        outSlope: 0
        tangentMode: 0
      - time: .383333445
        value: -0
        inSlope: 0
        outSlope: 0
        tangentMode: 0
      - time: .450000167
        value: -0
        inSlope: 0
        outSlope: 0
        tangentMode: 0
      - time: .500000179
        value: -0
        inSlope: 0
        outSlope: 0
        tangentMode: 0
      - time: .583333433
        value: -0
        inSlope: 0
        outSlope: 0
        tangentMode: 0
      - time: 1.16666627
        value: -0
        inSlope: 0
        outSlope: 0
        tangentMode: 0
      - time: 1.86666667
        value: -0
        inSlope: 0
        outSlope: 0
        tangentMode: 0
      m_PreInfinity: 2
      m_PostInfinity: 2
    attribute: localEulerAngles.x
    path: Flying_Bass_Layer1_01
    classID: 4
    script: {fileID: 0}
  - curve:
      serializedVersion: 2
      m_Curve:
      - time: 0
        value: 0
        inSlope: 0
        outSlope: 0
        tangentMode: 0
      - time: .25
        value: 0
        inSlope: 0
        outSlope: 0
        tangentMode: 0
      - time: .333333403
        value: 0
        inSlope: 0
        outSlope: 0
        tangentMode: 0
      - time: .366666764
        value: 0
        inSlope: 0
        outSlope: 0
        tangentMode: 0
      - time: .383333445
        value: 0
        inSlope: 0
        outSlope: 0
        tangentMode: 0
      - time: .450000167
        value: 0
        inSlope: 0
        outSlope: 0
        tangentMode: 0
      - time: .500000179
        value: 0
        inSlope: 0
        outSlope: 0
        tangentMode: 0
      - time: .583333433
        value: 0
        inSlope: 0
        outSlope: 0
        tangentMode: 0
      - time: 1.16666627
        value: 0
        inSlope: 0
        outSlope: 0
        tangentMode: 0
      - time: 1.86666667
        value: 0
        inSlope: 0
        outSlope: 0
        tangentMode: 0
      m_PreInfinity: 2
      m_PostInfinity: 2
    attribute: localEulerAngles.y
    path: Flying_Bass_Layer1_01
    classID: 4
    script: {fileID: 0}
  - curve:
      serializedVersion: 2
      m_Curve:
      - time: 0
        value: 0
        inSlope: 0
        outSlope: 0
        tangentMode: 0
      - time: .25
        value: 0
        inSlope: 0
        outSlope: 0
        tangentMode: 0
      - time: .333333403
        value: 0
        inSlope: 0
        outSlope: 0
        tangentMode: 0
      - time: .366666764
        value: 0
        inSlope: 0
        outSlope: 0
        tangentMode: 0
      - time: .383333445
        value: 0
        inSlope: 0
        outSlope: 0
        tangentMode: 0
      - time: .450000167
        value: 0
        inSlope: 0
        outSlope: 0
        tangentMode: 0
      - time: .500000179
        value: 0
        inSlope: 0
        outSlope: 0
        tangentMode: 0
      - time: .583333433
        value: 0
        inSlope: 0
        outSlope: 0
        tangentMode: 0
      - time: 1.16666627
        value: 0
        inSlope: 0
        outSlope: 0
        tangentMode: 0
      - time: 1.86666667
        value: 0
        inSlope: 0
        outSlope: 0
        tangentMode: 0
      m_PreInfinity: 2
      m_PostInfinity: 2
    attribute: localEulerAngles.z
    path: Flying_Bass_Layer1_01
    classID: 4
    script: {fileID: 0}
  - curve:
      serializedVersion: 2
      m_Curve:
      - time: 0
        value: -0
        inSlope: 0
        outSlope: 0
        tangentMode: 0
      - time: .25
        value: -0
        inSlope: 0
        outSlope: 0
        tangentMode: 0
      - time: .333333403
        value: -0
        inSlope: 0
        outSlope: 0
        tangentMode: 0
      - time: .366666764
        value: -0
        inSlope: 0
        outSlope: 0
        tangentMode: 0
      - time: .383333445
        value: -0
        inSlope: 0
        outSlope: 0
        tangentMode: 0
      - time: .450000167
        value: -0
        inSlope: 0
        outSlope: 0
        tangentMode: 0
      - time: .500000179
        value: -0
        inSlope: 0
        outSlope: 0
        tangentMode: 0
      - time: .583333433
        value: -0
        inSlope: 0
        outSlope: 0
        tangentMode: 0
      - time: 1.16666627
        value: -0
        inSlope: 0
        outSlope: 0
        tangentMode: 0
      - time: 1.86666667
        value: -0
        inSlope: 0
        outSlope: 0
        tangentMode: 0
      m_PreInfinity: 2
      m_PostInfinity: 2
    attribute: localEulerAngles.x
    path: Flying_Bass_Layer1_02
    classID: 4
    script: {fileID: 0}
  - curve:
      serializedVersion: 2
      m_Curve:
      - time: 0
        value: 0
        inSlope: 0
        outSlope: 0
        tangentMode: 0
      - time: .25
        value: 0
        inSlope: 0
        outSlope: 0
        tangentMode: 0
      - time: .333333403
        value: 0
        inSlope: 0
        outSlope: 0
        tangentMode: 0
      - time: .366666764
        value: 0
        inSlope: 0
        outSlope: 0
        tangentMode: 0
      - time: .383333445
        value: 0
        inSlope: 0
        outSlope: 0
        tangentMode: 0
      - time: .450000167
        value: 0
        inSlope: 0
        outSlope: 0
        tangentMode: 0
      - time: .500000179
        value: 0
        inSlope: 0
        outSlope: 0
        tangentMode: 0
      - time: .583333433
        value: 0
        inSlope: 0
        outSlope: 0
        tangentMode: 0
      - time: 1.16666627
        value: 0
        inSlope: 0
        outSlope: 0
        tangentMode: 0
      - time: 1.86666667
        value: 0
        inSlope: 0
        outSlope: 0
        tangentMode: 0
      m_PreInfinity: 2
      m_PostInfinity: 2
    attribute: localEulerAngles.y
    path: Flying_Bass_Layer1_02
    classID: 4
    script: {fileID: 0}
  - curve:
      serializedVersion: 2
      m_Curve:
      - time: 0
        value: 0
        inSlope: 0
        outSlope: 0
        tangentMode: 0
      - time: .25
        value: 0
        inSlope: 0
        outSlope: 0
        tangentMode: 0
      - time: .333333403
        value: 0
        inSlope: 0
        outSlope: 0
        tangentMode: 0
      - time: .366666764
        value: 0
        inSlope: 0
        outSlope: 0
        tangentMode: 0
      - time: .383333445
        value: 0
        inSlope: 0
        outSlope: 0
        tangentMode: 0
      - time: .450000167
        value: 0
        inSlope: 0
        outSlope: 0
        tangentMode: 0
      - time: .500000179
        value: 0
        inSlope: 0
        outSlope: 0
        tangentMode: 0
      - time: .583333433
        value: 0
        inSlope: 0
        outSlope: 0
        tangentMode: 0
      - time: 1.16666627
        value: 0
        inSlope: 0
        outSlope: 0
        tangentMode: 0
      - time: 1.86666667
        value: 0
        inSlope: 0
        outSlope: 0
        tangentMode: 0
      m_PreInfinity: 2
      m_PostInfinity: 2
    attribute: localEulerAngles.z
    path: Flying_Bass_Layer1_02
    classID: 4
    script: {fileID: 0}
  m_Events: []
