%YAML 1.1
%TAG !u! tag:unity3d.com,2011:
--- !u!74 &7400000
AnimationClip:
  m_ObjectHideFlags: 0
  m_PrefabParentObject: {fileID: 0}
  m_PrefabInternal: {fileID: 0}
  m_Name: pulse_animations_phase1_bassC1_01
  serializedVersion: 4
  m_AnimationType: 1
  m_Compressed: 0
  m_UseHighQualityCurve: 1
  m_RotationCurves: []
  m_CompressedRotationCurves: []
  m_PositionCurves: []
  m_ScaleCurves: []
  m_FloatCurves:
  - curve:
      serializedVersion: 2
      m_Curve:
      - time: 0
        value: .720000029
        inSlope: 0
        outSlope: 0
        tangentMode: 0
      - time: .150000006
        value: 1
        inSlope: 0
        outSlope: 0
        tangentMode: 0
      - time: 1.23333335
        value: 0
        inSlope: 0
        outSlope: 0
        tangentMode: 0
      - time: 1.64999998
        value: 0
        inSlope: 0
        outSlope: 0
        tangentMode: 0
      - time: 1.76666665
        value: .596326411
        inSlope: 2.2796731
        outSlope: 2.2796731
        tangentMode: 0
      - time: 1.86666667
        value: .720000029
        inSlope: 0
        outSlope: 0
        tangentMode: 0
      m_PreInfinity: 2
      m_PostInfinity: 2
    attribute: pulse
    path: 
    classID: 114
    script: {fileID: 11500000, guid: 8c9b6dec59052e84d99c061c44a8ad6c, type: 3}
  m_PPtrCurves: []
  m_SampleRate: 60
  m_WrapMode: 2
  m_Bounds:
    m_Center: {x: 0, y: 0, z: 0}
    m_Extent: {x: 0, y: 0, z: 0}
  m_ClipBindingConstant:
    genericBindings: []
    pptrCurveMapping: []
  m_AnimationClipSettings:
    serializedVersion: 2
    m_StartTime: 0
    m_StopTime: 1.86666667
    m_OrientationOffsetY: 0
    m_Level: 0
    m_CycleOffset: 0
    m_LoopTime: 0
    m_LoopBlend: 0
    m_LoopBlendOrientation: 0
    m_LoopBlendPositionY: 0
    m_LoopBlendPositionXZ: 0
    m_KeepOriginalOrientation: 0
    m_KeepOriginalPositionY: 1
    m_KeepOriginalPositionXZ: 0
    m_HeightFromFeet: 0
    m_Mirror: 0
  m_EditorCurves:
  - curve:
      serializedVersion: 2
      m_Curve:
      - time: 0
        value: .720000029
        inSlope: 0
        outSlope: 0
        tangentMode: 0
      - time: .150000006
        value: 1
        inSlope: 0
        outSlope: 0
        tangentMode: 0
      - time: 1.23333335
        value: 0
        inSlope: 0
        outSlope: 0
        tangentMode: 0
      - time: 1.64999998
        value: 0
        inSlope: 0
        outSlope: 0
        tangentMode: 0
      - time: 1.76666665
        value: .596326411
        inSlope: 2.2796731
        outSlope: 2.2796731
        tangentMode: 0
      - time: 1.86666667
        value: .720000029
        inSlope: 0
        outSlope: 0
        tangentMode: 0
      m_PreInfinity: 2
      m_PostInfinity: 2
    attribute: pulse
    path: 
    classID: 114
    script: {fileID: 11500000, guid: 8c9b6dec59052e84d99c061c44a8ad6c, type: 3}
  m_EulerEditorCurves: []
  m_Events: []
