%YAML 1.1
%TAG !u! tag:unity3d.com,2011:
--- !u!74 &7400000
AnimationClip:
  m_ObjectHideFlags: 0
  m_PrefabParentObject: {fileID: 0}
  m_PrefabInternal: {fileID: 0}
  m_Name: sky_rises
  serializedVersion: 4
  m_AnimationType: 2
  m_Compressed: 0
  m_UseHighQualityCurve: 1
  m_RotationCurves: []
  m_CompressedRotationCurves: []
  m_PositionCurves:
  - curve:
      serializedVersion: 2
      m_Curve:
      - time: 0
        value: {x: 0, y: 0, z: 0}
        inSlope: {x: 0, y: 0, z: 0}
        outSlope: {x: 0, y: 0, z: 0}
        tangentMode: 1106247680
      - time: 14.9833336
        value: {x: 0, y: -14, z: 0}
        inSlope: {x: 0, y: -.666963816, z: 0}
        outSlope: {x: 0, y: -.666963816, z: 0}
        tangentMode: 2
      - time: 30
        value: {x: 0, y: -20, z: 0}
        inSlope: {x: 0, y: 0, z: 0}
        outSlope: {x: 0, y: 0, z: 0}
        tangentMode: 1106247680
      m_PreInfinity: 2
      m_PostInfinity: 2
    path: 
  m_ScaleCurves: []
  m_FloatCurves:
  - curve:
      serializedVersion: 2
      m_Curve:
      - time: 0
        value: 0
        inSlope: .0333333351
        outSlope: .0333333351
        tangentMode: 10
      - time: 30
        value: 1
        inSlope: .0333333351
        outSlope: .0333333351
        tangentMode: 10
      m_PreInfinity: 2
      m_PostInfinity: 2
    attribute: material._FogValue
    path: 
    classID: 23
    script: {fileID: 0}
  - curve:
      serializedVersion: 2
      m_Curve:
      - time: 0
        value: .145328745
        inSlope: .00692041358
        outSlope: .00692041358
        tangentMode: 10
      - time: 30
        value: .352941155
        inSlope: .00692041358
        outSlope: .00692041358
        tangentMode: 10
      m_PreInfinity: 2
      m_PostInfinity: 2
    attribute: material._Horizon.r
    path: 
    classID: 23
    script: {fileID: 0}
  - curve:
      serializedVersion: 2
      m_Curve:
      - time: 0
        value: .138408318
        inSlope: .00928767305
        outSlope: .00928767305
        tangentMode: 10
      - time: 30
        value: .41703853
        inSlope: .00928767305
        outSlope: .00928767305
        tangentMode: 10
      m_PreInfinity: 2
      m_PostInfinity: 2
    attribute: material._Horizon.g
    path: 
    classID: 23
    script: {fileID: 0}
  - curve:
      serializedVersion: 2
      m_Curve:
      - time: 0
        value: .147058845
        inSlope: .0107843122
        outSlope: .0107843122
        tangentMode: 10
      - time: 30
        value: .470588207
        inSlope: .0107843122
        outSlope: .0107843122
        tangentMode: 10
      m_PreInfinity: 2
      m_PostInfinity: 2
    attribute: material._Horizon.b
    path: 
    classID: 23
    script: {fileID: 0}
  - curve:
      serializedVersion: 2
      m_Curve:
      - time: 0
        value: 1
        inSlope: 0
        outSlope: 0
        tangentMode: 10
      - time: 30
        value: 1
        inSlope: 0
        outSlope: 0
        tangentMode: 10
      m_PreInfinity: 2
      m_PostInfinity: 2
    attribute: material._Horizon.a
    path: 
    classID: 23
    script: {fileID: 0}
  - curve:
      serializedVersion: 2
      m_Curve:
      - time: 0
        value: .0470588244
        inSlope: .00290801679
        outSlope: .00290801679
        tangentMode: 10
      - time: 30
        value: .134299323
        inSlope: .00290801679
        outSlope: .00290801679
        tangentMode: 10
      m_PreInfinity: 2
      m_PostInfinity: 2
    attribute: material._Sky.r
    path: 
    classID: 23
    script: {fileID: 0}
  - curve:
      serializedVersion: 2
      m_Curve:
      - time: 0
        value: .0588235296
        inSlope: .0025158599
        outSlope: .0025158599
        tangentMode: 10
      - time: 30
        value: .134299323
        inSlope: .0025158599
        outSlope: .0025158599
        tangentMode: 10
      m_PreInfinity: 2
      m_PostInfinity: 2
    attribute: material._Sky.g
    path: 
    classID: 23
    script: {fileID: 0}
  - curve:
      serializedVersion: 2
      m_Curve:
      - time: 0
        value: .13333334
        inSlope: .00437908527
        outSlope: .00437908527
        tangentMode: 10
      - time: 30
        value: .264705896
        inSlope: .00437908527
        outSlope: .00437908527
        tangentMode: 10
      m_PreInfinity: 2
      m_PostInfinity: 2
    attribute: material._Sky.b
    path: 
    classID: 23
    script: {fileID: 0}
  - curve:
      serializedVersion: 2
      m_Curve:
      - time: 0
        value: 1
        inSlope: 0
        outSlope: 0
        tangentMode: 10
      - time: 30
        value: 1
        inSlope: 0
        outSlope: 0
        tangentMode: 10
      m_PreInfinity: 2
      m_PostInfinity: 2
    attribute: material._Sky.a
    path: 
    classID: 23
    script: {fileID: 0}
  - curve:
      serializedVersion: 2
      m_Curve:
      - time: 0
        value: 1
        inSlope: 0
        outSlope: 0
        tangentMode: 10
      - time: 30
        value: 1
        inSlope: 0
        outSlope: 0
        tangentMode: 10
      m_PreInfinity: 2
      m_PostInfinity: 2
    attribute: material._SunInfluence.r
    path: 
    classID: 23
    script: {fileID: 0}
  - curve:
      serializedVersion: 2
      m_Curve:
      - time: 0
        value: .567139924
        inSlope: .0132521987
        outSlope: .0132521987
        tangentMode: 10
      - time: 30
        value: .964705884
        inSlope: .0132521987
        outSlope: .0132521987
        tangentMode: 10
      m_PreInfinity: 2
      m_PostInfinity: 2
    attribute: material._SunInfluence.g
    path: 
    classID: 23
    script: {fileID: 0}
  - curve:
      serializedVersion: 2
      m_Curve:
      - time: 0
        value: .286764681
        inSlope: .00547385728
        outSlope: .00547385728
        tangentMode: 10
      - time: 30
        value: .450980395
        inSlope: .00547385728
        outSlope: .00547385728
        tangentMode: 10
      m_PreInfinity: 2
      m_PostInfinity: 2
    attribute: material._SunInfluence.b
    path: 
    classID: 23
    script: {fileID: 0}
  - curve:
      serializedVersion: 2
      m_Curve:
      - time: 0
        value: .0588235296
        inSlope: .00535947736
        outSlope: .00535947736
        tangentMode: 10
      - time: 30
        value: .219607845
        inSlope: .00535947736
        outSlope: .00535947736
        tangentMode: 10
      m_PreInfinity: 2
      m_PostInfinity: 2
    attribute: material._SunInfluence.a
    path: 
    classID: 23
    script: {fileID: 0}
  - curve:
      serializedVersion: 2
      m_Curve:
      - time: 0
        value: 1
        inSlope: 0
        outSlope: 0
        tangentMode: 10
      - time: 30
        value: 1
        inSlope: 0
        outSlope: 0
        tangentMode: 10
      m_PreInfinity: 2
      m_PostInfinity: 2
    attribute: material._FogColor.r
    path: 
    classID: 23
    script: {fileID: 0}
  - curve:
      serializedVersion: 2
      m_Curve:
      - time: 0
        value: 1
        inSlope: 0
        outSlope: 0
        tangentMode: 10
      - time: 30
        value: 1
        inSlope: 0
        outSlope: 0
        tangentMode: 10
      m_PreInfinity: 2
      m_PostInfinity: 2
    attribute: material._FogColor.g
    path: 
    classID: 23
    script: {fileID: 0}
  - curve:
      serializedVersion: 2
      m_Curve:
      - time: 0
        value: 1
        inSlope: 0
        outSlope: 0
        tangentMode: 10
      - time: 30
        value: 1
        inSlope: 0
        outSlope: 0
        tangentMode: 10
      m_PreInfinity: 2
      m_PostInfinity: 2
    attribute: material._FogColor.b
    path: 
    classID: 23
    script: {fileID: 0}
  - curve:
      serializedVersion: 2
      m_Curve:
      - time: 0
        value: .250980407
        inSlope: -.00836601388
        outSlope: -.00836601388
        tangentMode: 10
      - time: 30
        value: 0
        inSlope: -.00836601388
        outSlope: -.00836601388
        tangentMode: 10
      m_PreInfinity: 2
      m_PostInfinity: 2
    attribute: material._FogColor.a
    path: 
    classID: 23
    script: {fileID: 0}
  - curve:
      serializedVersion: 2
      m_Curve:
      - time: 0
        value: 15
        inSlope: .936454833
        outSlope: .936454833
        tangentMode: 10
      - time: 14.9499998
        value: 29
        inSlope: .667562962
        outSlope: .667562962
        tangentMode: 10
      - time: 30
        value: 35
        inSlope: .398671091
        outSlope: .398671091
        tangentMode: 10
      m_PreInfinity: 2
      m_PostInfinity: 2
    attribute: material._FogHeight
    path: 
    classID: 23
    script: {fileID: 0}
  m_PPtrCurves: []
  m_SampleRate: 60
  m_WrapMode: 0
  m_Bounds:
    m_Center: {x: 0, y: 0, z: 0}
    m_Extent: {x: 0, y: 0, z: 0}
  m_ClipBindingConstant:
    genericBindings:
    - path: 0
      attribute: 1
      script: {fileID: 0}
      classID: 4
      customType: 0
      isPPtrCurve: 0
    - path: 0
      attribute: 2257310368
      script: {fileID: 0}
      classID: 23
      customType: 22
      isPPtrCurve: 0
    - path: 0
      attribute: 1129800965
      script: {fileID: 0}
      classID: 23
      customType: 22
      isPPtrCurve: 0
    - path: 0
      attribute: 1398236421
      script: {fileID: 0}
      classID: 23
      customType: 22
      isPPtrCurve: 0
    - path: 0
      attribute: 1666671877
      script: {fileID: 0}
      classID: 23
      customType: 22
      isPPtrCurve: 0
    - path: 0
      attribute: 1124084725
      script: {fileID: 0}
      classID: 23
      customType: 22
      isPPtrCurve: 0
    - path: 0
      attribute: 1392520181
      script: {fileID: 0}
      classID: 23
      customType: 22
      isPPtrCurve: 0
    - path: 0
      attribute: 1660955637
      script: {fileID: 0}
      classID: 23
      customType: 22
      isPPtrCurve: 0
    - path: 0
      attribute: 1455125620
      script: {fileID: 0}
      classID: 23
      customType: 22
      isPPtrCurve: 0
    - path: 0
      attribute: 1723561076
      script: {fileID: 0}
      classID: 23
      customType: 22
      isPPtrCurve: 0
    - path: 0
      attribute: 1991996532
      script: {fileID: 0}
      classID: 23
      customType: 22
      isPPtrCurve: 0
    - path: 0
      attribute: 2108342909
      script: {fileID: 0}
      classID: 23
      customType: 22
      isPPtrCurve: 0
    - path: 0
      attribute: 2196000472
      script: {fileID: 0}
      classID: 23
      customType: 22
      isPPtrCurve: 0
    - path: 0
      attribute: 1935107333
      script: {fileID: 0}
      classID: 23
      customType: 22
      isPPtrCurve: 0
    - path: 0
      attribute: 1929391093
      script: {fileID: 0}
      classID: 23
      customType: 22
      isPPtrCurve: 0
    - path: 0
      attribute: 1186690164
      script: {fileID: 0}
      classID: 23
      customType: 22
      isPPtrCurve: 0
    - path: 0
      attribute: 1303036541
      script: {fileID: 0}
      classID: 23
      customType: 22
      isPPtrCurve: 0
    - path: 0
      attribute: 1571471997
      script: {fileID: 0}
      classID: 23
      customType: 22
      isPPtrCurve: 0
    - path: 0
      attribute: 1839907453
      script: {fileID: 0}
      classID: 23
      customType: 22
      isPPtrCurve: 0
    pptrCurveMapping: []
  m_AnimationClipSettings:
    serializedVersion: 2
    m_StartTime: 0
    m_StopTime: 30
    m_OrientationOffsetY: 0
    m_Level: 0
    m_CycleOffset: 0
    m_LoopTime: 0
    m_LoopBlend: 0
    m_LoopBlendOrientation: 0
    m_LoopBlendPositionY: 0
    m_LoopBlendPositionXZ: 0
    m_KeepOriginalOrientation: 0
    m_KeepOriginalPositionY: 1
    m_KeepOriginalPositionXZ: 0
    m_HeightFromFeet: 0
    m_Mirror: 0
  m_EditorCurves:
  - curve:
      serializedVersion: 2
      m_Curve:
      - time: 0
        value: 0
        inSlope: 0
        outSlope: 0
        tangentMode: 0
      - time: 14.9833336
        value: -14
        inSlope: -.666963816
        outSlope: -.666963816
        tangentMode: 10
      - time: 30
        value: -20
        inSlope: 0
        outSlope: 0
        tangentMode: 0
      m_PreInfinity: 2
      m_PostInfinity: 2
    attribute: m_LocalPosition.y
    path: 
    classID: 4
    script: {fileID: 0}
  - curve:
      serializedVersion: 2
      m_Curve:
      - time: 0
        value: 0
        inSlope: .0333333351
        outSlope: .0333333351
        tangentMode: 10
      - time: 30
        value: 1
        inSlope: .0333333351
        outSlope: .0333333351
        tangentMode: 10
      m_PreInfinity: 2
      m_PostInfinity: 2
    attribute: material._FogValue
    path: 
    classID: 23
    script: {fileID: 0}
  - curve:
      serializedVersion: 2
      m_Curve:
      - time: 0
        value: .145328745
        inSlope: .00692041358
        outSlope: .00692041358
        tangentMode: 10
      - time: 30
        value: .352941155
        inSlope: .00692041358
        outSlope: .00692041358
        tangentMode: 10
      m_PreInfinity: 2
      m_PostInfinity: 2
    attribute: material._Horizon.r
    path: 
    classID: 23
    script: {fileID: 0}
  - curve:
      serializedVersion: 2
      m_Curve:
      - time: 0
        value: .138408318
        inSlope: .00928767305
        outSlope: .00928767305
        tangentMode: 10
      - time: 30
        value: .41703853
        inSlope: .00928767305
        outSlope: .00928767305
        tangentMode: 10
      m_PreInfinity: 2
      m_PostInfinity: 2
    attribute: material._Horizon.g
    path: 
    classID: 23
    script: {fileID: 0}
  - curve:
      serializedVersion: 2
      m_Curve:
      - time: 0
        value: .147058845
        inSlope: .0107843122
        outSlope: .0107843122
        tangentMode: 10
      - time: 30
        value: .470588207
        inSlope: .0107843122
        outSlope: .0107843122
        tangentMode: 10
      m_PreInfinity: 2
      m_PostInfinity: 2
    attribute: material._Horizon.b
    path: 
    classID: 23
    script: {fileID: 0}
  - curve:
      serializedVersion: 2
      m_Curve:
      - time: 0
        value: 1
        inSlope: 0
        outSlope: 0
        tangentMode: 10
      - time: 30
        value: 1
        inSlope: 0
        outSlope: 0
        tangentMode: 10
      m_PreInfinity: 2
      m_PostInfinity: 2
    attribute: material._Horizon.a
    path: 
    classID: 23
    script: {fileID: 0}
  - curve:
      serializedVersion: 2
      m_Curve:
      - time: 0
        value: .0470588244
        inSlope: .00290801679
        outSlope: .00290801679
        tangentMode: 10
      - time: 30
        value: .134299323
        inSlope: .00290801679
        outSlope: .00290801679
        tangentMode: 10
      m_PreInfinity: 2
      m_PostInfinity: 2
    attribute: material._Sky.r
    path: 
    classID: 23
    script: {fileID: 0}
  - curve:
      serializedVersion: 2
      m_Curve:
      - time: 0
        value: .0588235296
        inSlope: .0025158599
        outSlope: .0025158599
        tangentMode: 10
      - time: 30
        value: .134299323
        inSlope: .0025158599
        outSlope: .0025158599
        tangentMode: 10
      m_PreInfinity: 2
      m_PostInfinity: 2
    attribute: material._Sky.g
    path: 
    classID: 23
    script: {fileID: 0}
  - curve:
      serializedVersion: 2
      m_Curve:
      - time: 0
        value: .13333334
        inSlope: .00437908527
        outSlope: .00437908527
        tangentMode: 10
      - time: 30
        value: .264705896
        inSlope: .00437908527
        outSlope: .00437908527
        tangentMode: 10
      m_PreInfinity: 2
      m_PostInfinity: 2
    attribute: material._Sky.b
    path: 
    classID: 23
    script: {fileID: 0}
  - curve:
      serializedVersion: 2
      m_Curve:
      - time: 0
        value: 1
        inSlope: 0
        outSlope: 0
        tangentMode: 10
      - time: 30
        value: 1
        inSlope: 0
        outSlope: 0
        tangentMode: 10
      m_PreInfinity: 2
      m_PostInfinity: 2
    attribute: material._Sky.a
    path: 
    classID: 23
    script: {fileID: 0}
  - curve:
      serializedVersion: 2
      m_Curve:
      - time: 0
        value: 1
        inSlope: 0
        outSlope: 0
        tangentMode: 10
      - time: 30
        value: 1
        inSlope: 0
        outSlope: 0
        tangentMode: 10
      m_PreInfinity: 2
      m_PostInfinity: 2
    attribute: material._SunInfluence.r
    path: 
    classID: 23
    script: {fileID: 0}
  - curve:
      serializedVersion: 2
      m_Curve:
      - time: 0
        value: .567139924
        inSlope: .0132521987
        outSlope: .0132521987
        tangentMode: 10
      - time: 30
        value: .964705884
        inSlope: .0132521987
        outSlope: .0132521987
        tangentMode: 10
      m_PreInfinity: 2
      m_PostInfinity: 2
    attribute: material._SunInfluence.g
    path: 
    classID: 23
    script: {fileID: 0}
  - curve:
      serializedVersion: 2
      m_Curve:
      - time: 0
        value: .286764681
        inSlope: .00547385728
        outSlope: .00547385728
        tangentMode: 10
      - time: 30
        value: .450980395
        inSlope: .00547385728
        outSlope: .00547385728
        tangentMode: 10
      m_PreInfinity: 2
      m_PostInfinity: 2
    attribute: material._SunInfluence.b
    path: 
    classID: 23
    script: {fileID: 0}
  - curve:
      serializedVersion: 2
      m_Curve:
      - time: 0
        value: .0588235296
        inSlope: .00535947736
        outSlope: .00535947736
        tangentMode: 10
      - time: 30
        value: .219607845
        inSlope: .00535947736
        outSlope: .00535947736
        tangentMode: 10
      m_PreInfinity: 2
      m_PostInfinity: 2
    attribute: material._SunInfluence.a
    path: 
    classID: 23
    script: {fileID: 0}
  - curve:
      serializedVersion: 2
      m_Curve:
      - time: 0
        value: 1
        inSlope: 0
        outSlope: 0
        tangentMode: 10
      - time: 30
        value: 1
        inSlope: 0
        outSlope: 0
        tangentMode: 10
      m_PreInfinity: 2
      m_PostInfinity: 2
    attribute: material._FogColor.r
    path: 
    classID: 23
    script: {fileID: 0}
  - curve:
      serializedVersion: 2
      m_Curve:
      - time: 0
        value: 1
        inSlope: 0
        outSlope: 0
        tangentMode: 10
      - time: 30
        value: 1
        inSlope: 0
        outSlope: 0
        tangentMode: 10
      m_PreInfinity: 2
      m_PostInfinity: 2
    attribute: material._FogColor.g
    path: 
    classID: 23
    script: {fileID: 0}
  - curve:
      serializedVersion: 2
      m_Curve:
      - time: 0
        value: 1
        inSlope: 0
        outSlope: 0
        tangentMode: 10
      - time: 30
        value: 1
        inSlope: 0
        outSlope: 0
        tangentMode: 10
      m_PreInfinity: 2
      m_PostInfinity: 2
    attribute: material._FogColor.b
    path: 
    classID: 23
    script: {fileID: 0}
  - curve:
      serializedVersion: 2
      m_Curve:
      - time: 0
        value: .250980407
        inSlope: -.00836601388
        outSlope: -.00836601388
        tangentMode: 10
      - time: 30
        value: 0
        inSlope: -.00836601388
        outSlope: -.00836601388
        tangentMode: 10
      m_PreInfinity: 2
      m_PostInfinity: 2
    attribute: material._FogColor.a
    path: 
    classID: 23
    script: {fileID: 0}
  - curve:
      serializedVersion: 2
      m_Curve:
      - time: 0
        value: 15
        inSlope: .936454833
        outSlope: .936454833
        tangentMode: 10
      - time: 14.9499998
        value: 29
        inSlope: .667562962
        outSlope: .667562962
        tangentMode: 10
      - time: 30
        value: 35
        inSlope: .398671091
        outSlope: .398671091
        tangentMode: 10
      m_PreInfinity: 2
      m_PostInfinity: 2
    attribute: material._FogHeight
    path: 
    classID: 23
    script: {fileID: 0}
  m_EulerEditorCurves: []
  m_Events: []
