%YAML 1.1
%TAG !u! tag:unity3d.com,2011:
--- !u!21 &2100000
Material:
  serializedVersion: 3
  m_ObjectHideFlags: 0
  m_PrefabParentObject: {fileID: 0}
  m_PrefabInternal: {fileID: 0}
  m_Name: armature_frame_02
  m_Shader: {fileID: 4800000, guid: 6432d73431dcdc3418f542c284d262e8, type: 3}
  m_ShaderKeywords: []
  m_CustomRenderQueue: -1
  m_SavedProperties:
    serializedVersion: 2
    m_TexEnvs:
      data:
        first:
          name: _MainTex
        second:
          m_Texture: {fileID: 2800000, guid: 274b4c17b530da1479fcfa0130367b84, type: 3}
          m_Scale: {x: 1, y: 1}
          m_Offset: {x: 0, y: 0}
      data:
        first:
          name: _Illum
        second:
          m_Texture: {fileID: 2800000, guid: 274b4c17b530da1479fcfa0130367b84, type: 3}
          m_Scale: {x: 1, y: 1}
          m_Offset: {x: 0, y: 0}
      data:
        first:
          name: _Glow
        second:
          m_Texture: {fileID: 2800000, guid: fbf36f6ff777cbd4a922b61c2c40af3d, type: 3}
          m_Scale: {x: 1, y: 1}
          m_Offset: {x: 0, y: .5}
    m_Floats:
      data:
        first:
          name: _EmissionLM
        second: 0
      data:
        first:
          name: _Light1
        second: 1
      data:
        first:
          name: _Light2
        second: .739965081
      data:
        first:
          name: _Light3
        second: .203561157
      data:
        first:
          name: _Light4
        second: .969943881
      data:
        first:
          name: _Light5
        second: 1
      data:
        first:
          name: _Light6
        second: 1
      data:
        first:
          name: _GlowPower
        second: 1
      data:
        first:
          name: _GlowInfluence
        second: 0
      data:
        first:
          name: _AllLights
        second: .00800000038
      data:
        first:
          name: _DiffusePower
        second: 0
    m_Colors:
      data:
        first:
          name: _Color
        second: {r: 1, g: 1, b: 1, a: 1}
