%YAML 1.1
%TAG !u! tag:unity3d.com,2011:
--- !u!21 &2100000
Material:
  serializedVersion: 3
  m_ObjectHideFlags: 0
  m_PrefabParentObject: {fileID: 0}
  m_PrefabInternal: {fileID: 0}
  m_Name: block_ph1_basic_01
  m_Shader: {fileID: 4800000, guid: d6a3d4e2874c16e4a89416b020820ba1, type: 3}
  m_ShaderKeywords: []
  m_CustomRenderQueue: -1
  m_SavedProperties:
    serializedVersion: 2
    m_TexEnvs:
      data:
        first:
          name: _MainTex
        second:
          m_Texture: {fileID: 2800000, guid: d73c39305374eb14fb04228b8667e322, type: 3}
          m_Scale: {x: 10, y: 10}
          m_Offset: {x: 0, y: 0}
      data:
        first:
          name: _BumpMap
        second:
          m_Texture: {fileID: 2800000, guid: 1d19c24fe0ff370449f9381936a0bf16, type: 3}
          m_Scale: {x: 10, y: 10}
          m_Offset: {x: 0, y: 0}
      data:
        first:
          name: _Emission
        second:
          m_Texture: {fileID: 2800000, guid: 1bb83221e3bb1274ba32f7f2b1f8c543, type: 3}
          m_Scale: {x: 10, y: 10}
          m_Offset: {x: 0, y: 0}
      data:
        first:
          name: _Illum
        second:
          m_Texture: {fileID: 0}
          m_Scale: {x: 1, y: 1}
          m_Offset: {x: 0, y: 0}
      data:
        first:
          name: _Cookie
        second:
          m_Texture: {fileID: 2800000, guid: 1048c8c0fda82a844b96e262f0dce642, type: 3}
          m_Scale: {x: 1, y: 1}
          m_Offset: {x: 0, y: 0}
    m_Floats:
      data:
        first:
          name: _EmissionLM
        second: 0
      data:
        first:
          name: _Light1
        second: .333980024
      data:
        first:
          name: _Light2
        second: .807889819
      data:
        first:
          name: _Light3
        second: 0
      data:
        first:
          name: _Light4
        second: 0
      data:
        first:
          name: _Light5
        second: 0
      data:
        first:
          name: _Light6
        second: 0
      data:
        first:
          name: _mip
        second: 3
    m_Colors:
      data:
        first:
          name: _LightColor
        second: {r: .5, g: .5, b: .5, a: 1}
      data:
        first:
          name: _Color
        second: {r: .838235259, g: .626041055, b: .357482672, a: .227450982}
      data:
        first:
          name: _EmissionColor
        second: {r: 1, g: .546754539, b: .198529422, a: .498039216}
      data:
        first:
          name: _Glow
        second: {r: .996078432, g: .541176498, b: .200000003, a: .31764707}
      data:
        first:
          name: _LightDirection1
        second: {r: -.5, g: .865999997, b: 0, a: 0}
      data:
        first:
          name: _LightDirection2
        second: {r: .5, g: .865999997, b: 0, a: 0}
      data:
        first:
          name: _LightDirection3
        second: {r: 1, g: 0, b: 0, a: 0}
      data:
        first:
          name: _BounceColor
        second: {r: 0, g: 0, b: 0, a: 1}
