%YAML 1.1
%TAG !u! tag:unity3d.com,2011:
--- !u!21 &2100000
Material:
  serializedVersion: 3
  m_ObjectHideFlags: 0
  m_PrefabParentObject: {fileID: 0}
  m_PrefabInternal: {fileID: 0}
  m_Name: sonar_02
  m_Shader: {fileID: 4800000, guid: 668bc609d1816224d95f7c93a965e7cd, type: 3}
  m_ShaderKeywords: []
  m_CustomRenderQueue: -1
  m_SavedProperties:
    serializedVersion: 2
    m_TexEnvs:
      data:
        first:
          name: _MainTex
        second:
          m_Texture: {fileID: 2800000, guid: fbf36f6ff777cbd4a922b61c2c40af3d, type: 3}
          m_Scale: {x: 1, y: 2}
          m_Offset: {x: 0, y: 0}
    m_Floats:
      data:
        first:
          name: _Speed
        second: -.959999979
      data:
        first:
          name: _Intensity
        second: 1
      data:
        first:
          name: _FresnelExponent
        second: .75
      data:
        first:
          name: _EndSize
        second: .0357142836
    m_Colors:
      data:
        first:
          name: _MainTex
        second: {r: .5, g: .5, b: .5, a: 1}
      data:
        first:
          name: _Color
        second: {r: 1, g: 1, b: 1, a: 1}
