%YAML 1.1
%TAG !u! tag:unity3d.com,2011:
--- !u!74 &7400000
AnimationClip:
  m_ObjectHideFlags: 0
  m_PrefabParentObject: {fileID: 0}
  m_PrefabInternal: {fileID: 0}
  m_Name: piste_lecture_kick_01
  serializedVersion: 4
  m_AnimationType: 2
  m_Compressed: 0
  m_UseHighQualityCurve: 1
  m_RotationCurves: []
  m_CompressedRotationCurves: []
  m_PositionCurves: []
  m_ScaleCurves: []
  m_FloatCurves:
  - curve:
      serializedVersion: 2
      m_Curve:
      - time: 0
        value: 0
        inSlope: 0
        outSlope: 6
        tangentMode: 17
      - time: .166666672
        value: 1
        inSlope: 6
        outSlope: 0
        tangentMode: 5
      - time: 1.56666672
        value: 1
        inSlope: 0
        outSlope: 0
        tangentMode: 5
      - time: 1.86666667
        value: 1
        inSlope: 0
        outSlope: -60.0000572
        tangentMode: 21
      m_PreInfinity: 2
      m_PostInfinity: 2
    attribute: material._Lecture1
    path: 
    classID: 23
    script: {fileID: 0}
  - curve:
      serializedVersion: 2
      m_Curve:
      - time: 0
        value: 0
        inSlope: 0
        outSlope: -0
        tangentMode: 17
      - time: .466666669
        value: 0
        inSlope: 0
        outSlope: 6.00000048
        tangentMode: 17
      - time: .633333325
        value: 1
        inSlope: 6.00000048
        outSlope: 0
        tangentMode: 5
      - time: 1.56666672
        value: 1
        inSlope: 0
        outSlope: 0
        tangentMode: 5
      - time: 1.86666667
        value: 1
        inSlope: 0
        outSlope: -60.0000572
        tangentMode: 21
      m_PreInfinity: 2
      m_PostInfinity: 2
    attribute: material._Lecture2
    path: 
    classID: 23
    script: {fileID: 0}
  - curve:
      serializedVersion: 2
      m_Curve:
      - time: 0
        value: 0
        inSlope: 0
        outSlope: -0
        tangentMode: 17
      - time: .933333337
        value: 0
        inSlope: 0
        outSlope: 5.99999952
        tangentMode: 17
      - time: 1.10000002
        value: 1
        inSlope: 5.99999952
        outSlope: 0
        tangentMode: 5
      - time: 1.56666672
        value: 1
        inSlope: 0
        outSlope: 0
        tangentMode: 5
      - time: 1.86666667
        value: 1
        inSlope: 0
        outSlope: -60.0000572
        tangentMode: 21
      m_PreInfinity: 2
      m_PostInfinity: 2
    attribute: material._Lecture3
    path: 
    classID: 23
    script: {fileID: 0}
  - curve:
      serializedVersion: 2
      m_Curve:
      - time: 0
        value: 0
        inSlope: 0
        outSlope: -0
        tangentMode: 17
      - time: 1.39999998
        value: 0
        inSlope: 0
        outSlope: 5.99999714
        tangentMode: 17
      - time: 1.56666672
        value: 1
        inSlope: 5.99999714
        outSlope: 0
        tangentMode: 5
      - time: 1.86666667
        value: 1
        inSlope: 0
        outSlope: -60.0000572
        tangentMode: 21
      m_PreInfinity: 2
      m_PostInfinity: 2
    attribute: material._Lecture4
    path: 
    classID: 23
    script: {fileID: 0}
  - curve:
      serializedVersion: 2
      m_Curve:
      - time: 0
        value: 0
        inSlope: 0
        outSlope: 6
        tangentMode: 17
      - time: .166666672
        value: 1
        inSlope: 6
        outSlope: 0
        tangentMode: 5
      - time: .466666669
        value: 0
        inSlope: 0
        outSlope: -0
        tangentMode: 17
      - time: 1.86666667
        value: 0
        inSlope: 0
        outSlope: 0
        tangentMode: 17
      m_PreInfinity: 2
      m_PostInfinity: 2
    attribute: material._Fader1
    path: 
    classID: 23
    script: {fileID: 0}
  - curve:
      serializedVersion: 2
      m_Curve:
      - time: .466666669
        value: 0
        inSlope: 0
        outSlope: 6.00000048
        tangentMode: 17
      - time: .633333325
        value: 1
        inSlope: 6.00000048
        outSlope: 0
        tangentMode: 5
      - time: .933333337
        value: 0
        inSlope: 0
        outSlope: -0
        tangentMode: 17
      - time: 1.86666667
        value: 0
        inSlope: 0
        outSlope: 0
        tangentMode: 17
      m_PreInfinity: 2
      m_PostInfinity: 2
    attribute: material._Fader2
    path: 
    classID: 23
    script: {fileID: 0}
  - curve:
      serializedVersion: 2
      m_Curve:
      - time: .933333337
        value: 0
        inSlope: 0
        outSlope: 5.99999952
        tangentMode: 17
      - time: 1.10000002
        value: 1
        inSlope: 5.99999952
        outSlope: 0
        tangentMode: 5
      - time: 1.39999998
        value: 0
        inSlope: 0
        outSlope: -0
        tangentMode: 17
      - time: 1.86666667
        value: 0
        inSlope: 0
        outSlope: 0
        tangentMode: 17
      m_PreInfinity: 2
      m_PostInfinity: 2
    attribute: material._Fader3
    path: 
    classID: 23
    script: {fileID: 0}
  - curve:
      serializedVersion: 2
      m_Curve:
      - time: 1.39999998
        value: 0
        inSlope: 0
        outSlope: 5.99999714
        tangentMode: 17
      - time: 1.56666672
        value: 1
        inSlope: 5.99999714
        outSlope: 0
        tangentMode: 5
      - time: 1.86666667
        value: 0
        inSlope: 0
        outSlope: 0
        tangentMode: 17
      m_PreInfinity: 2
      m_PostInfinity: 2
    attribute: material._Fader4
    path: 
    classID: 23
    script: {fileID: 0}
  m_PPtrCurves: []
  m_SampleRate: 60
  m_WrapMode: 0
  m_Bounds:
    m_Center: {x: 0, y: 0, z: 0}
    m_Extent: {x: 0, y: 0, z: 0}
  m_ClipBindingConstant:
    genericBindings:
    - path: 0
      attribute: 2360108634
      script: {fileID: 0}
      classID: 23
      customType: 22
      isPPtrCurve: 0
    - path: 0
      attribute: 2242197472
      script: {fileID: 0}
      classID: 23
      customType: 22
      isPPtrCurve: 0
    - path: 0
      attribute: 2191656822
      script: {fileID: 0}
      classID: 23
      customType: 22
      isPPtrCurve: 0
    - path: 0
      attribute: 2361823957
      script: {fileID: 0}
      classID: 23
      customType: 22
      isPPtrCurve: 0
    - path: 0
      attribute: 2200798077
      script: {fileID: 0}
      classID: 23
      customType: 22
      isPPtrCurve: 0
    - path: 0
      attribute: 2317669063
      script: {fileID: 0}
      classID: 23
      customType: 22
      isPPtrCurve: 0
    - path: 0
      attribute: 2367939153
      script: {fileID: 0}
      classID: 23
      customType: 22
      isPPtrCurve: 0
    - path: 0
      attribute: 2202499058
      script: {fileID: 0}
      classID: 23
      customType: 22
      isPPtrCurve: 0
    pptrCurveMapping: []
  m_AnimationClipSettings:
    serializedVersion: 2
    m_StartTime: 0
    m_StopTime: 1.86666667
    m_OrientationOffsetY: 0
    m_Level: 0
    m_CycleOffset: 0
    m_LoopTime: 1
    m_LoopBlend: 0
    m_LoopBlendOrientation: 0
    m_LoopBlendPositionY: 0
    m_LoopBlendPositionXZ: 0
    m_KeepOriginalOrientation: 0
    m_KeepOriginalPositionY: 1
    m_KeepOriginalPositionXZ: 0
    m_HeightFromFeet: 0
    m_Mirror: 0
  m_EditorCurves:
  - curve:
      serializedVersion: 2
      m_Curve:
      - time: 0
        value: 0
        inSlope: 0
        outSlope: 6
        tangentMode: 17
      - time: .166666672
        value: 1
        inSlope: 6
        outSlope: 0
        tangentMode: 5
      - time: 1.56666672
        value: 1
        inSlope: 0
        outSlope: 0
        tangentMode: 5
      - time: 1.86666667
        value: 1
        inSlope: 0
        outSlope: -60.0000572
        tangentMode: 21
      m_PreInfinity: 2
      m_PostInfinity: 2
    attribute: material._Lecture1
    path: 
    classID: 23
    script: {fileID: 0}
  - curve:
      serializedVersion: 2
      m_Curve:
      - time: 0
        value: 0
        inSlope: 0
        outSlope: -0
        tangentMode: 17
      - time: .466666669
        value: 0
        inSlope: 0
        outSlope: 6.00000048
        tangentMode: 17
      - time: .633333325
        value: 1
        inSlope: 6.00000048
        outSlope: 0
        tangentMode: 5
      - time: 1.56666672
        value: 1
        inSlope: 0
        outSlope: 0
        tangentMode: 5
      - time: 1.86666667
        value: 1
        inSlope: 0
        outSlope: -60.0000572
        tangentMode: 21
      m_PreInfinity: 2
      m_PostInfinity: 2
    attribute: material._Lecture2
    path: 
    classID: 23
    script: {fileID: 0}
  - curve:
      serializedVersion: 2
      m_Curve:
      - time: 0
        value: 0
        inSlope: 0
        outSlope: -0
        tangentMode: 17
      - time: .933333337
        value: 0
        inSlope: 0
        outSlope: 5.99999952
        tangentMode: 17
      - time: 1.10000002
        value: 1
        inSlope: 5.99999952
        outSlope: 0
        tangentMode: 5
      - time: 1.56666672
        value: 1
        inSlope: 0
        outSlope: 0
        tangentMode: 5
      - time: 1.86666667
        value: 1
        inSlope: 0
        outSlope: -60.0000572
        tangentMode: 21
      m_PreInfinity: 2
      m_PostInfinity: 2
    attribute: material._Lecture3
    path: 
    classID: 23
    script: {fileID: 0}
  - curve:
      serializedVersion: 2
      m_Curve:
      - time: 0
        value: 0
        inSlope: 0
        outSlope: -0
        tangentMode: 17
      - time: 1.39999998
        value: 0
        inSlope: 0
        outSlope: 5.99999714
        tangentMode: 17
      - time: 1.56666672
        value: 1
        inSlope: 5.99999714
        outSlope: 0
        tangentMode: 5
      - time: 1.86666667
        value: 1
        inSlope: 0
        outSlope: -60.0000572
        tangentMode: 21
      m_PreInfinity: 2
      m_PostInfinity: 2
    attribute: material._Lecture4
    path: 
    classID: 23
    script: {fileID: 0}
  - curve:
      serializedVersion: 2
      m_Curve:
      - time: 0
        value: 0
        inSlope: 0
        outSlope: 6
        tangentMode: 17
      - time: .166666672
        value: 1
        inSlope: 6
        outSlope: 0
        tangentMode: 5
      - time: .466666669
        value: 0
        inSlope: 0
        outSlope: -0
        tangentMode: 17
      - time: 1.86666667
        value: 0
        inSlope: 0
        outSlope: 0
        tangentMode: 17
      m_PreInfinity: 2
      m_PostInfinity: 2
    attribute: material._Fader1
    path: 
    classID: 23
    script: {fileID: 0}
  - curve:
      serializedVersion: 2
      m_Curve:
      - time: .466666669
        value: 0
        inSlope: 0
        outSlope: 6.00000048
        tangentMode: 17
      - time: .633333325
        value: 1
        inSlope: 6.00000048
        outSlope: 0
        tangentMode: 5
      - time: .933333337
        value: 0
        inSlope: 0
        outSlope: -0
        tangentMode: 17
      - time: 1.86666667
        value: 0
        inSlope: 0
        outSlope: 0
        tangentMode: 17
      m_PreInfinity: 2
      m_PostInfinity: 2
    attribute: material._Fader2
    path: 
    classID: 23
    script: {fileID: 0}
  - curve:
      serializedVersion: 2
      m_Curve:
      - time: .933333337
        value: 0
        inSlope: 0
        outSlope: 5.99999952
        tangentMode: 17
      - time: 1.10000002
        value: 1
        inSlope: 5.99999952
        outSlope: 0
        tangentMode: 5
      - time: 1.39999998
        value: 0
        inSlope: 0
        outSlope: -0
        tangentMode: 17
      - time: 1.86666667
        value: 0
        inSlope: 0
        outSlope: 0
        tangentMode: 17
      m_PreInfinity: 2
      m_PostInfinity: 2
    attribute: material._Fader3
    path: 
    classID: 23
    script: {fileID: 0}
  - curve:
      serializedVersion: 2
      m_Curve:
      - time: 1.39999998
        value: 0
        inSlope: 0
        outSlope: 5.99999714
        tangentMode: 17
      - time: 1.56666672
        value: 1
        inSlope: 5.99999714
        outSlope: 0
        tangentMode: 5
      - time: 1.86666667
        value: 0
        inSlope: 0
        outSlope: 0
        tangentMode: 17
      m_PreInfinity: 2
      m_PostInfinity: 2
    attribute: material._Fader4
    path: 
    classID: 23
    script: {fileID: 0}
  m_EulerEditorCurves: []
  m_Events: []
