%YAML 1.1
%TAG !u! tag:unity3d.com,2011:
--- !u!114 &11400000
MonoBehaviour:
  m_ObjectHideFlags: 0
  m_PrefabParentObject: {fileID: 0}
  m_PrefabInternal: {fileID: 0}
  m_GameObject: {fileID: 0}
  m_Enabled: 1
  m_EditorHideFlags: 0
  m_Script: {fileID: 11500000, guid: 385c75cfe8d4ef04cb385857c19ce5fa, type: 3}
  m_Name: TB_Stop_ST
  m_EditorClassIdentifier: 
  path: event:/GUI/TB_Stop_ST
  id: '{3982b435-6516-4242-b139-c3997095a1ef}'
