%YAML 1.1
%TAG !u! tag:unity3d.com,2011:
--- !u!21 &2100000
Material:
  serializedVersion: 3
  m_ObjectHideFlags: 0
  m_PrefabParentObject: {fileID: 0}
  m_PrefabInternal: {fileID: 0}
  m_Name: block_ph1_b01_120
  m_Shader: {fileID: 4800000, guid: d06a6f201ea4608489554739a4d22bc9, type: 3}
  m_ShaderKeywords: []
  m_CustomRenderQueue: -1
  m_SavedProperties:
    serializedVersion: 2
    m_TexEnvs:
      data:
        first:
          name: _MainTex
        second:
          m_Texture: {fileID: 2800000, guid: d73c39305374eb14fb04228b8667e322, type: 3}
          m_Scale: {x: 3, y: 3}
          m_Offset: {x: 0, y: 0}
      data:
        first:
          name: _BumpMap
        second:
          m_Texture: {fileID: 2800000, guid: 1d19c24fe0ff370449f9381936a0bf16, type: 3}
          m_Scale: {x: 10, y: 10}
          m_Offset: {x: 0, y: 0}
      data:
        first:
          name: _Emission
        second:
          m_Texture: {fileID: 2800000, guid: 1bb83221e3bb1274ba32f7f2b1f8c543, type: 3}
          m_Scale: {x: 3, y: 3}
          m_Offset: {x: 0, y: 0}
      data:
        first:
          name: _Illum
        second:
          m_Texture: {fileID: 0}
          m_Scale: {x: 1, y: 1}
          m_Offset: {x: 0, y: 0}
      data:
        first:
          name: _Cookie
        second:
          m_Texture: {fileID: 2800000, guid: 1048c8c0fda82a844b96e262f0dce642, type: 3}
          m_Scale: {x: 1, y: 1}
          m_Offset: {x: 0, y: 0}
      data:
        first:
          name: _GlowTex
        second:
          m_Texture: {fileID: 2800000, guid: 29f5e036ed9d144459f53cd4a6bf6f09, type: 3}
          m_Scale: {x: 1, y: 4}
          m_Offset: {x: 0, y: .5}
      data:
        first:
          name: _LightAttenuation
        second:
          m_Texture: {fileID: 2800000, guid: 3d21e8f8d3ff4d240b913ff95fb293b2, type: 3}
          m_Scale: {x: 1, y: 1}
          m_Offset: {x: 0, y: 0}
      data:
        first:
          name: _node_880
        second:
          m_Texture: {fileID: 0}
          m_Scale: {x: 1, y: 1}
          m_Offset: {x: 0, y: 0}
      data:
        first:
          name: _node_3893
        second:
          m_Texture: {fileID: 0}
          m_Scale: {x: 1, y: 1}
          m_Offset: {x: 0, y: 0}
      data:
        first:
          name: _node_5064
        second:
          m_Texture: {fileID: 0}
          m_Scale: {x: 1, y: 1}
          m_Offset: {x: 0, y: 0}
    m_Floats:
      data:
        first:
          name: _EmissionLM
        second: 0
      data:
        first:
          name: _Light1
        second: .505494356
      data:
        first:
          name: _Light2
        second: .925241709
      data:
        first:
          name: _Light3
        second: 0
      data:
        first:
          name: _Light4
        second: 0
      data:
        first:
          name: _Light5
        second: 0
      data:
        first:
          name: _Light6
        second: 0
      data:
        first:
          name: _mip
        second: 3
      data:
        first:
          name: _Angle
        second: 2.0940001
    m_Colors:
      data:
        first:
          name: _LightColor
        second: {r: 1, g: .882352948, b: .882352948, a: 1}
      data:
        first:
          name: _Color
        second: {r: 1, g: .76308322, b: .463235319, a: .227450982}
      data:
        first:
          name: _EmissionColor
        second: {r: 1, g: .546754539, b: .198529422, a: .498039216}
      data:
        first:
          name: _Glow
        second: {r: 1, g: 0, b: 0, a: .211764708}
      data:
        first:
          name: _LightDirection1
        second: {r: -.5, g: .865999997, b: 0, a: 0}
      data:
        first:
          name: _LightDirection2
        second: {r: .5, g: .865999997, b: 0, a: 0}
      data:
        first:
          name: _LightDirection3
        second: {r: 1, g: 0, b: 0, a: 0}
      data:
        first:
          name: _GlowColor
        second: {r: .996078432, g: .541176498, b: .200000003, a: .31764707}
      data:
        first:
          name: _BounceColor
        second: {r: 0, g: 0, b: 0, a: 1}
