%YAML 1.1
%TAG !u! tag:unity3d.com,2011:
--- !u!114 &11400000
MonoBehaviour:
  m_ObjectHideFlags: 0
  m_PrefabParentObject: {fileID: 0}
  m_PrefabInternal: {fileID: 0}
  m_GameObject: {fileID: 0}
  m_Enabled: 1
  m_EditorHideFlags: 0
  m_Script: {fileID: 1219815696, guid: e743331561ef77147ae48cda9bcb8209, type: 3}
  m_Name: phase_loading
  m_EditorClassIdentifier: 
  category: General
  fsm:
    usedInTemplate: {fileID: 11400000}
    name: LoadNextPhase
    startState: Inactive
    states:
    - name: Inactive
      description: 
      colorIndex: 6
      position:
        serializedVersion: 2
        x: 50
        y: 100
        width: 127
        height: 32
      isBreakpoint: 0
      isSequence: 0
      hideUnused: 0
      transitions:
      - fsmEvent:
          name: TRIGGER ENTER
          isSystemEvent: 0
          isGlobal: 0
        toState: Loading
        linkStyle: 0
        linkConstraint: 0
        colorIndex: 0
      actionData:
        actionNames: []
        customNames: []
        actionEnabled: 
        actionIsOpen: 
        actionStartIndex: 
        actionHashCodes: 
        unityObjectParams: []
        fsmGameObjectParams: []
        fsmOwnerDefaultParams: []
        animationCurveParams: []
        functionCallParams: []
        fsmTemplateControlParams: []
        fsmEventTargetParams: []
        fsmPropertyParams: []
        layoutOptionParams: []
        fsmStringParams: []
        fsmObjectParams: []
        fsmVarParams: []
        byteData: 
        arrayParamSizes: 
        arrayParamTypes: []
        customTypeSizes: 
        customTypeNames: []
        paramDataType: 
        paramName: []
        paramDataPos: 
        paramByteDataSize: 
    - name: Loading
      description: 
      colorIndex: 4
      position:
        serializedVersion: 2
        x: 238
        y: 161
        width: 140
        height: 32
      isBreakpoint: 0
      isSequence: 0
      hideUnused: 0
      transitions:
      - fsmEvent:
          name: LoadingIsFinished
          isSystemEvent: 0
          isGlobal: 0
        toState: Phase1Loaded
        linkStyle: 0
        linkConstraint: 0
        colorIndex: 0
      actionData:
        actionNames:
        - HutongGames.PlayMaker.Actions.LoadLevel
        - HutongGames.PlayMaker.Actions.StartDesignerDialog
        - HutongGames.PlayMaker.Actions.PlayAnimation
        - HutongGames.PlayMaker.Actions.StartFMODSoundEffect
        customNames:
        - 
        - 
        - 
        - 
        actionEnabled: 01010101
        actionIsOpen: 01010101
        actionStartIndex: 0000000005000000080000000f000000
        actionHashCodes: e1834f5ebc9fccef6e06efc0bc9fccef
        unityObjectParams:
        - {fileID: 0}
        - {fileID: 0}
        fsmGameObjectParams: []
        fsmOwnerDefaultParams:
        - ownerOption: 1
          gameObject:
            useVariable: 0
            name: 
            tooltip: 
            showInInspector: 0
            networkSync: 0
            value: {fileID: 100000, guid: 082b45fd9b074e44d84c0c9a04610eef, type: 2}
        animationCurveParams: []
        functionCallParams: []
        fsmTemplateControlParams: []
        fsmEventTargetParams: []
        fsmPropertyParams: []
        layoutOptionParams: []
        fsmStringParams:
        - useVariable: 0
          name: 
          tooltip: 
          showInInspector: 0
          networkSync: 0
          value: phase_1
        - useVariable: 0
          name: 
          tooltip: 
          showInInspector: 0
          networkSync: 0
          value: EnjoyRide
        - useVariable: 0
          name: 
          tooltip: 
          showInInspector: 0
          networkSync: 0
          value: tunnel_appear
        - useVariable: 0
          name: 
          tooltip: 
          showInInspector: 0
          networkSync: 0
          value: Tunnel
        fsmObjectParams: []
        fsmVarParams: []
        byteData: 01014c6f6164696e67497346696e697368656400000000040000000000000000000000
        arrayParamSizes: 
        arrayParamTypes: []
        customTypeSizes: 
        customTypeNames: []
        paramDataType: 12000000010000000100000017000000110000001200000011000000050000001400000012000000070000000f000000170000001700000001000000120000001100000005000000
        paramName:
        - levelName
        - additive
        - async
        - loadedEvent
        - dontDestroyOnLoad
        - dialog
        - endDialogOnExit
        - destination
        - gameObject
        - animName
        - playMode
        - blendTime
        - finishEvent
        - loopEvent
        - stopOnExit
        - soundName
        - stopSoundOnExit
        - source
        paramDataPos: 00000000000000000100000002000000130000000100000015000000000000000000000002000000170000001b000000200000002000000020000000030000002100000001000000
        paramByteDataSize: 000000000100000001000000110000000200000000000000020000000000000000000000000000000400000005000000000000000000000001000000000000000200000000000000
    - name: Phase1Loaded
      description: 
      colorIndex: 3
      position:
        serializedVersion: 2
        x: 455
        y: 262
        width: 117
        height: 16
      isBreakpoint: 0
      isSequence: 0
      hideUnused: 0
      transitions: []
      actionData:
        actionNames:
        - HutongGames.PlayMaker.Actions.FindGameObject
        customNames:
        - 
        actionEnabled: 01
        actionIsOpen: 01
        actionStartIndex: 00000000
        actionHashCodes: c54a778f
        unityObjectParams: []
        fsmGameObjectParams:
        - useVariable: 1
          name: Phase1
          tooltip: 
          showInInspector: 0
          networkSync: 0
          value: {fileID: 0}
        fsmOwnerDefaultParams: []
        animationCurveParams: []
        functionCallParams: []
        fsmTemplateControlParams: []
        fsmEventTargetParams: []
        fsmPropertyParams: []
        layoutOptionParams: []
        fsmStringParams:
        - useVariable: 0
          name: 
          tooltip: 
          showInInspector: 0
          networkSync: 0
          value: phase_1
        - useVariable: 0
          name: 
          tooltip: 
          showInInspector: 0
          networkSync: 0
          value: Untagged
        fsmObjectParams: []
        fsmVarParams: []
        byteData: 
        arrayParamSizes: 
        arrayParamTypes: []
        customTypeSizes: 
        customTypeNames: []
        paramDataType: 120000001200000013000000
        paramName:
        - objectName
        - withTag
        - store
        paramDataPos: 000000000100000000000000
        paramByteDataSize: 000000000000000000000000
    events:
    - name: TRIGGER ENTER
      isSystemEvent: 1
      isGlobal: 0
    - name: LoadingIsFinished
      isSystemEvent: 0
      isGlobal: 0
    globalTransitions: []
    variables:
      floatVariables: []
      intVariables: []
      boolVariables: []
      stringVariables: []
      vector2Variables: []
      vector3Variables: []
      colorVariables: []
      rectVariables: []
      quaternionVariables: []
      gameObjectVariables: []
      objectVariables: []
      materialVariables: []
      textureVariables: []
    description: 
    docUrl: 
    showStateLabel: 1
    maxLoopCount: 0
    watermark: 
    version: 0
    ExposedEvents: []
    RestartOnEnable: 1
    EnableDebugFlow: 0
    StepFrame: 0
    activeStateName: 
