%YAML 1.1
%TAG !u! tag:unity3d.com,2011:
--- !u!74 &7400000
AnimationClip:
  m_ObjectHideFlags: 0
  m_PrefabParentObject: {fileID: 0}
  m_PrefabInternal: {fileID: 0}
  m_Name: Refrain_motion
  serializedVersion: 4
  m_AnimationType: 1
  m_Compressed: 0
  m_UseHighQualityCurve: 1
  m_RotationCurves: []
  m_CompressedRotationCurves: []
  m_PositionCurves:
  - curve:
      serializedVersion: 2
      m_Curve:
      - time: 0
        value: {x: 0, y: 0, z: 0}
        inSlope: {x: 0, y: 0, z: 8.53333378}
        outSlope: {x: 0, y: 0, z: 8.53333378}
        tangentMode: 1974564
      - time: 3.75
        value: {x: 0, y: 0, z: 32}
        inSlope: {x: 0, y: 0, z: 19.5047626}
        outSlope: {x: 0, y: 0, z: 19.5047626}
        tangentMode: 759465172
      - time: 30
        value: {x: 0, y: 0, z: 832}
        inSlope: {x: 0, y: 0, z: 30.4761906}
        outSlope: {x: 0, y: 0, z: 30.4761906}
        tangentMode: 769251832
      m_PreInfinity: 2
      m_PostInfinity: 2
    path: ghost
  m_ScaleCurves: []
  m_FloatCurves: []
  m_PPtrCurves: []
  m_SampleRate: 60
  m_WrapMode: 0
  m_Bounds:
    m_Center: {x: 0, y: 0, z: 0}
    m_Extent: {x: 0, y: 0, z: 0}
  m_ClipBindingConstant:
    genericBindings: []
    pptrCurveMapping: []
  m_AnimationClipSettings:
    serializedVersion: 2
    m_StartTime: 0
    m_StopTime: 30
    m_OrientationOffsetY: 0
    m_Level: 0
    m_CycleOffset: 0
    m_LoopTime: 0
    m_LoopBlend: 0
    m_LoopBlendOrientation: 0
    m_LoopBlendPositionY: 0
    m_LoopBlendPositionXZ: 0
    m_KeepOriginalOrientation: 0
    m_KeepOriginalPositionY: 1
    m_KeepOriginalPositionXZ: 0
    m_HeightFromFeet: 0
    m_Mirror: 0
  m_EditorCurves:
  - curve:
      serializedVersion: 2
      m_Curve:
      - time: 0
        value: 0
        inSlope: 0
        outSlope: 0
        tangentMode: 10
      - time: 3.75
        value: 0
        inSlope: 0
        outSlope: 0
        tangentMode: 10
      - time: 30
        value: 0
        inSlope: 0
        outSlope: 0
        tangentMode: 10
      m_PreInfinity: 2
      m_PostInfinity: 2
    attribute: m_LocalPosition.x
    path: ghost
    classID: 4
    script: {fileID: 0}
  - curve:
      serializedVersion: 2
      m_Curve:
      - time: 0
        value: 0
        inSlope: 0
        outSlope: 0
        tangentMode: 10
      - time: 3.75
        value: 0
        inSlope: 0
        outSlope: 0
        tangentMode: 10
      - time: 30
        value: 0
        inSlope: 0
        outSlope: 0
        tangentMode: 10
      m_PreInfinity: 2
      m_PostInfinity: 2
    attribute: m_LocalPosition.y
    path: ghost
    classID: 4
    script: {fileID: 0}
  - curve:
      serializedVersion: 2
      m_Curve:
      - time: 0
        value: 0
        inSlope: 8.53333378
        outSlope: 8.53333378
        tangentMode: 10
      - time: 3.75
        value: 32
        inSlope: 19.5047626
        outSlope: 19.5047626
        tangentMode: 10
      - time: 30
        value: 832
        inSlope: 30.4761906
        outSlope: 30.4761906
        tangentMode: 10
      m_PreInfinity: 2
      m_PostInfinity: 2
    attribute: m_LocalPosition.z
    path: ghost
    classID: 4
    script: {fileID: 0}
  m_EulerEditorCurves: []
  m_Events: []
